%YAML 1.1
%TAG !u! tag:unity3d.com,2011:
--- !u!114 &11400000
MonoBehaviour:
  m_ObjectHideFlags: 0
  m_CorrespondingSourceObject: {fileID: 0}
  m_PrefabInstance: {fileID: 0}
  m_PrefabAsset: {fileID: 0}
  m_GameObject: {fileID: 0}
  m_Enabled: 1
  m_EditorHideFlags: 0
  m_Script: {fileID: 11500000, guid: 8275efdbe76bdff49a97a8e82fba118d, type: 3}
  m_Name: NevrolensMixedRealityHandTrackingProfile
  m_EditorClassIdentifier: 
  isCustomProfile: 1
  jointPrefab: {fileID: 0}
  palmPrefab: {fileID: 0}
  fingertipPrefab: {fileID: 0}
  handMeshPrefab: {fileID: 0}
  handMeshVisualizationModes: 1
  handJointVisualizationModes: 1
