%YAML 1.1
%TAG !u! tag:unity3d.com,2011:
--- !u!29 &1
OcclusionCullingSettings:
  m_ObjectHideFlags: 0
  serializedVersion: 2
  m_OcclusionBakeSettings:
    smallestOccluder: 5
    smallestHole: 0.25
    backfaceThreshold: 100
  m_SceneGUID: 00000000000000000000000000000000
  m_OcclusionCullingData: {fileID: 0}
--- !u!104 &2
RenderSettings:
  m_ObjectHideFlags: 0
  serializedVersion: 9
  m_Fog: 0
  m_FogColor: {r: 0.5, g: 0.5, b: 0.5, a: 1}
  m_FogMode: 3
  m_FogDensity: 0.01
  m_LinearFogStart: 0
  m_LinearFogEnd: 300
  m_AmbientSkyColor: {r: 0.212, g: 0.227, b: 0.259, a: 1}
  m_AmbientEquatorColor: {r: 0.114, g: 0.125, b: 0.133, a: 1}
  m_AmbientGroundColor: {r: 0.047, g: 0.043, b: 0.035, a: 1}
  m_AmbientIntensity: 1
  m_AmbientMode: 0
  m_SubtractiveShadowColor: {r: 0.42, g: 0.478, b: 0.627, a: 1}
  m_SkyboxMaterial: {fileID: 0}
  m_HaloStrength: 0.5
  m_FlareStrength: 1
  m_FlareFadeSpeed: 3
  m_HaloTexture: {fileID: 0}
  m_SpotCookie: {fileID: 10001, guid: 0000000000000000e000000000000000, type: 0}
  m_DefaultReflectionMode: 0
  m_DefaultReflectionResolution: 128
  m_ReflectionBounces: 1
  m_ReflectionIntensity: 1
  m_CustomReflection: {fileID: 0}
  m_Sun: {fileID: 0}
  m_IndirectSpecularColor: {r: 0, g: 0, b: 0, a: 1}
  m_UseRadianceAmbientProbe: 0
--- !u!157 &3
LightmapSettings:
  m_ObjectHideFlags: 0
  serializedVersion: 11
  m_GIWorkflowMode: 0
  m_GISettings:
    serializedVersion: 2
    m_BounceScale: 1
    m_IndirectOutputScale: 1
    m_AlbedoBoost: 1
    m_EnvironmentLightingMode: 0
    m_EnableBakedLightmaps: 1
    m_EnableRealtimeLightmaps: 0
  m_LightmapEditorSettings:
    serializedVersion: 12
    m_Resolution: 2
    m_BakeResolution: 40
    m_AtlasSize: 1024
    m_AO: 0
    m_AOMaxDistance: 1
    m_CompAOExponent: 1
    m_CompAOExponentDirect: 0
    m_ExtractAmbientOcclusion: 0
    m_Padding: 2
    m_LightmapParameters: {fileID: 0}
    m_LightmapsBakeMode: 1
    m_TextureCompression: 1
    m_FinalGather: 0
    m_FinalGatherFiltering: 1
    m_FinalGatherRayCount: 256
    m_ReflectionCompression: 2
    m_MixedBakeMode: 2
    m_BakeBackend: 1
    m_PVRSampling: 1
    m_PVRDirectSampleCount: 32
    m_PVRSampleCount: 500
    m_PVRBounces: 2
    m_PVREnvironmentSampleCount: 500
    m_PVREnvironmentReferencePointCount: 2048
    m_PVRFilteringMode: 2
    m_PVRDenoiserTypeDirect: 0
    m_PVRDenoiserTypeIndirect: 0
    m_PVRDenoiserTypeAO: 0
    m_PVRFilterTypeDirect: 0
    m_PVRFilterTypeIndirect: 0
    m_PVRFilterTypeAO: 0
    m_PVREnvironmentMIS: 0
    m_PVRCulling: 1
    m_PVRFilteringGaussRadiusDirect: 1
    m_PVRFilteringGaussRadiusIndirect: 5
    m_PVRFilteringGaussRadiusAO: 2
    m_PVRFilteringAtrousPositionSigmaDirect: 0.5
    m_PVRFilteringAtrousPositionSigmaIndirect: 2
    m_PVRFilteringAtrousPositionSigmaAO: 1
    m_ExportTrainingData: 0
    m_TrainingDataDestination: TrainingData
    m_LightProbeSampleCountMultiplier: 4
  m_LightingDataAsset: {fileID: 0}
  m_UseShadowmask: 1
--- !u!196 &4
NavMeshSettings:
  serializedVersion: 2
  m_ObjectHideFlags: 0
  m_BuildSettings:
    serializedVersion: 2
    agentTypeID: 0
    agentRadius: 0.5
    agentHeight: 2
    agentSlope: 45
    agentClimb: 0.4
    ledgeDropHeight: 0
    maxJumpAcrossDistance: 0
    minRegionArea: 2
    manualCellSize: 0
    cellSize: 0.16666667
    manualTileSize: 0
    tileSize: 256
    accuratePlacement: 0
    debug:
      m_Flags: 0
  m_NavMeshData: {fileID: 0}
--- !u!1 &81735507
GameObject:
  m_ObjectHideFlags: 0
  m_CorrespondingSourceObject: {fileID: 0}
  m_PrefabInstance: {fileID: 0}
  m_PrefabAsset: {fileID: 0}
  serializedVersion: 6
  m_Component:
  - component: {fileID: 81735508}
  m_Layer: 0
  m_Name: Anchor
  m_TagString: Untagged
  m_Icon: {fileID: 0}
  m_NavMeshLayer: 0
  m_StaticEditorFlags: 0
  m_IsActive: 1
--- !u!4 &81735508
Transform:
  m_ObjectHideFlags: 0
  m_CorrespondingSourceObject: {fileID: 0}
  m_PrefabInstance: {fileID: 0}
  m_PrefabAsset: {fileID: 0}
  m_GameObject: {fileID: 81735507}
  m_LocalRotation: {x: 0, y: 0, z: 0, w: 1}
  m_LocalPosition: {x: 0, y: -0.189, z: -0.112}
  m_LocalScale: {x: 1, y: 1, z: 1}
  m_Children: []
  m_Father: {fileID: 723593862}
  m_RootOrder: 2
  m_LocalEulerAnglesHint: {x: 0, y: 0, z: 0}
--- !u!1 &152989537
GameObject:
  m_ObjectHideFlags: 0
  m_CorrespondingSourceObject: {fileID: 0}
  m_PrefabInstance: {fileID: 0}
  m_PrefabAsset: {fileID: 0}
  serializedVersion: 6
  m_Component:
  - component: {fileID: 152989538}
  - component: {fileID: 152989539}
  m_Layer: 0
  m_Name: RainbowButton
  m_TagString: Untagged
  m_Icon: {fileID: 0}
  m_NavMeshLayer: 0
  m_StaticEditorFlags: 0
  m_IsActive: 1
--- !u!4 &152989538
Transform:
  m_ObjectHideFlags: 0
  m_CorrespondingSourceObject: {fileID: 0}
  m_PrefabInstance: {fileID: 0}
  m_PrefabAsset: {fileID: 0}
  m_GameObject: {fileID: 152989537}
  m_LocalRotation: {x: -0, y: -0, z: -0, w: 1}
  m_LocalPosition: {x: 0, y: 0.002, z: 0}
  m_LocalScale: {x: 0.02, y: 0.02, z: 0.01}
  m_Children: []
  m_Father: {fileID: 805505363}
  m_RootOrder: 4
  m_LocalEulerAnglesHint: {x: 0, y: 0, z: 0}
--- !u!212 &152989539
SpriteRenderer:
  m_ObjectHideFlags: 0
  m_CorrespondingSourceObject: {fileID: 0}
  m_PrefabInstance: {fileID: 0}
  m_PrefabAsset: {fileID: 0}
  m_GameObject: {fileID: 152989537}
  m_Enabled: 1
  m_CastShadows: 0
  m_ReceiveShadows: 0
  m_DynamicOccludee: 1
  m_MotionVectors: 1
  m_LightProbeUsage: 1
  m_ReflectionProbeUsage: 1
  m_RayTracingMode: 0
  m_RenderingLayerMask: 1
  m_RendererPriority: 0
  m_Materials:
  - {fileID: 10754, guid: 0000000000000000f000000000000000, type: 0}
  m_StaticBatchInfo:
    firstSubMesh: 0
    subMeshCount: 0
  m_StaticBatchRoot: {fileID: 0}
  m_ProbeAnchor: {fileID: 0}
  m_LightProbeVolumeOverride: {fileID: 0}
  m_ScaleInLightmap: 1
  m_ReceiveGI: 1
  m_PreserveUVs: 0
  m_IgnoreNormalsForChartDetection: 0
  m_ImportantGI: 0
  m_StitchLightmapSeams: 1
  m_SelectedEditorRenderState: 0
  m_MinimumChartSize: 4
  m_AutoUVMaxDistance: 0.5
  m_AutoUVMaxAngle: 89
  m_LightmapParameters: {fileID: 0}
  m_SortingLayerID: 0
  m_SortingLayer: 0
  m_SortingOrder: 0
  m_Sprite: {fileID: 21300000, guid: e7e105f170f3abb4982e01be68c40563, type: 3}
  m_Color: {r: 1, g: 1, b: 1, a: 1}
  m_FlipX: 0
  m_FlipY: 0
  m_DrawMode: 0
  m_Size: {x: 0.8, y: 0.8}
  m_AdaptiveModeThreshold: 0.5
  m_SpriteTileMode: 0
  m_WasSpriteAssigned: 1
  m_MaskInteraction: 0
  m_SpriteSortPoint: 0
--- !u!1 &159991640 stripped
GameObject:
  m_CorrespondingSourceObject: {fileID: 3885370230430447826, guid: 36ff76a9e7929f342915274725573e00,
    type: 3}
  m_PrefabInstance: {fileID: 1851272783}
  m_PrefabAsset: {fileID: 0}
--- !u!4 &230973490 stripped
Transform:
  m_CorrespondingSourceObject: {fileID: 1368769713134566724, guid: 36ff76a9e7929f342915274725573e00,
    type: 3}
  m_PrefabInstance: {fileID: 1665354953}
  m_PrefabAsset: {fileID: 0}
--- !u!1 &381596674 stripped
GameObject:
  m_CorrespondingSourceObject: {fileID: 4684963341941003236, guid: e96124284fc8b4c478ce38f89e1e0ef3,
    type: 3}
  m_PrefabInstance: {fileID: 4684963342117267430}
  m_PrefabAsset: {fileID: 0}
--- !u!4 &381596675 stripped
Transform:
  m_CorrespondingSourceObject: {fileID: 4684963341941003237, guid: e96124284fc8b4c478ce38f89e1e0ef3,
    type: 3}
  m_PrefabInstance: {fileID: 4684963342117267430}
  m_PrefabAsset: {fileID: 0}
--- !u!114 &381596676 stripped
MonoBehaviour:
  m_CorrespondingSourceObject: {fileID: 4684963341941003234, guid: e96124284fc8b4c478ce38f89e1e0ef3,
    type: 3}
  m_PrefabInstance: {fileID: 4684963342117267430}
  m_PrefabAsset: {fileID: 0}
  m_GameObject: {fileID: 381596674}
  m_Enabled: 1
  m_EditorHideFlags: 0
  m_Script: {fileID: 11500000, guid: 7374190529141ec4a8a026f1d0a537de, type: 3}
  m_Name: 
  m_EditorClassIdentifier: 
--- !u!114 &381596677
MonoBehaviour:
  m_ObjectHideFlags: 0
  m_CorrespondingSourceObject: {fileID: 0}
  m_PrefabInstance: {fileID: 0}
  m_PrefabAsset: {fileID: 0}
  m_GameObject: {fileID: 381596674}
  m_Enabled: 1
  m_EditorHideFlags: 0
  m_Script: {fileID: 11500000, guid: 2547b4dd088644d6aaf64f45df657c79, type: 3}
  m_Name: 
  m_EditorClassIdentifier: 
  pivotAxis: 0
  targetTransform: {fileID: 0}
--- !u!1 &723593861
GameObject:
  m_ObjectHideFlags: 0
  m_CorrespondingSourceObject: {fileID: 0}
  m_PrefabInstance: {fileID: 0}
  m_PrefabAsset: {fileID: 0}
  serializedVersion: 6
  m_Component:
  - component: {fileID: 723593862}
  m_Layer: 0
  m_Name: ItemContainer (1)
  m_TagString: Untagged
  m_Icon: {fileID: 0}
  m_NavMeshLayer: 0
  m_StaticEditorFlags: 0
  m_IsActive: 1
--- !u!4 &723593862
Transform:
  m_ObjectHideFlags: 0
  m_CorrespondingSourceObject: {fileID: 0}
  m_PrefabInstance: {fileID: 0}
  m_PrefabAsset: {fileID: 0}
  m_GameObject: {fileID: 723593861}
  m_LocalRotation: {x: 0, y: 0, z: 0, w: 1}
  m_LocalPosition: {x: -0.3, y: 0, z: 0}
  m_LocalScale: {x: 1, y: 1, z: 1}
  m_Children:
  - {fileID: 1904373577}
  - {fileID: 924532019}
  - {fileID: 81735508}
  - {fileID: 1665354954}
  m_Father: {fileID: 1382463660}
  m_RootOrder: 2
  m_LocalEulerAnglesHint: {x: 0, y: 0, z: 0}
--- !u!4 &805505363 stripped
Transform:
  m_CorrespondingSourceObject: {fileID: 1368769713134566724, guid: 36ff76a9e7929f342915274725573e00,
    type: 3}
  m_PrefabInstance: {fileID: 1851272783}
  m_PrefabAsset: {fileID: 0}
--- !u!1 &899000158
GameObject:
  m_ObjectHideFlags: 0
  m_CorrespondingSourceObject: {fileID: 0}
  m_PrefabInstance: {fileID: 0}
  m_PrefabAsset: {fileID: 0}
  serializedVersion: 6
  m_Component:
  - component: {fileID: 899000159}
  m_Layer: 0
  m_Name: Anchor
  m_TagString: Untagged
  m_Icon: {fileID: 0}
  m_NavMeshLayer: 0
  m_StaticEditorFlags: 0
  m_IsActive: 1
--- !u!4 &899000159
Transform:
  m_ObjectHideFlags: 0
  m_CorrespondingSourceObject: {fileID: 0}
  m_PrefabInstance: {fileID: 0}
  m_PrefabAsset: {fileID: 0}
  m_GameObject: {fileID: 899000158}
  m_LocalRotation: {x: 0, y: 0, z: 0, w: 1}
  m_LocalPosition: {x: 0, y: -0.189, z: -0.112}
  m_LocalScale: {x: 1, y: 1, z: 1}
  m_Children: []
  m_Father: {fileID: 1927950888}
  m_RootOrder: 2
  m_LocalEulerAnglesHint: {x: 0, y: 0, z: 0}
--- !u!1 &904212060
GameObject:
  m_ObjectHideFlags: 0
  m_CorrespondingSourceObject: {fileID: 0}
  m_PrefabInstance: {fileID: 0}
  m_PrefabAsset: {fileID: 0}
  serializedVersion: 6
  m_Component:
  - component: {fileID: 904212061}
  m_Layer: 0
  m_Name: ItemContainer (2)
  m_TagString: Untagged
  m_Icon: {fileID: 0}
  m_NavMeshLayer: 0
  m_StaticEditorFlags: 0
  m_IsActive: 1
--- !u!4 &904212061
Transform:
  m_ObjectHideFlags: 0
  m_CorrespondingSourceObject: {fileID: 0}
  m_PrefabInstance: {fileID: 0}
  m_PrefabAsset: {fileID: 0}
  m_GameObject: {fileID: 904212060}
  m_LocalRotation: {x: 0, y: 0, z: 0, w: 1}
  m_LocalPosition: {x: 0, y: 0, z: 0}
  m_LocalScale: {x: 1, y: 1, z: 1}
  m_Children:
  - {fileID: 1052274462}
  - {fileID: 1589750494}
  - {fileID: 1796589984}
  - {fileID: 1844810868}
  m_Father: {fileID: 1382463660}
  m_RootOrder: 3
  m_LocalEulerAnglesHint: {x: 0, y: 0, z: 0}
--- !u!1001 &914966059
PrefabInstance:
  m_ObjectHideFlags: 0
  serializedVersion: 2
  m_Modification:
    m_TransformParent: {fileID: 1382463660}
    m_Modifications:
    - target: {fileID: 157292884975899652, guid: c0931c4da6d91ea429abedb10290dd16,
        type: 3}
      propertyPath: startDimensionIndex
      value: 0
      objectReference: {fileID: 0}
    - target: {fileID: 463960672768484199, guid: c0931c4da6d91ea429abedb10290dd16,
        type: 3}
      propertyPath: m_Mesh
      value: 
      objectReference: {fileID: 0}
    - target: {fileID: 1713571739358940556, guid: c0931c4da6d91ea429abedb10290dd16,
        type: 3}
      propertyPath: m_Mesh
      value: 
      objectReference: {fileID: 0}
    - target: {fileID: 1817674031921216966, guid: c0931c4da6d91ea429abedb10290dd16,
        type: 3}
      propertyPath: m_Mesh
      value: 
      objectReference: {fileID: 0}
    - target: {fileID: 2788573367235141933, guid: c0931c4da6d91ea429abedb10290dd16,
        type: 3}
      propertyPath: m_havePropertiesChanged
      value: 1
      objectReference: {fileID: 0}
    - target: {fileID: 2788573367235141933, guid: c0931c4da6d91ea429abedb10290dd16,
        type: 3}
      propertyPath: m_isInputParsingRequired
      value: 1
      objectReference: {fileID: 0}
    - target: {fileID: 2788573367235141971, guid: c0931c4da6d91ea429abedb10290dd16,
        type: 3}
      propertyPath: m_Mesh
      value: 
      objectReference: {fileID: 0}
    - target: {fileID: 3559032652844342688, guid: c0931c4da6d91ea429abedb10290dd16,
        type: 3}
      propertyPath: m_Mesh
      value: 
      objectReference: {fileID: 0}
    - target: {fileID: 3559032652844342750, guid: c0931c4da6d91ea429abedb10290dd16,
        type: 3}
      propertyPath: m_havePropertiesChanged
      value: 1
      objectReference: {fileID: 0}
    - target: {fileID: 3559032652844342750, guid: c0931c4da6d91ea429abedb10290dd16,
        type: 3}
      propertyPath: m_isInputParsingRequired
      value: 1
      objectReference: {fileID: 0}
    - target: {fileID: 4305907101023271952, guid: c0931c4da6d91ea429abedb10290dd16,
        type: 3}
      propertyPath: m_Mesh
      value: 
      objectReference: {fileID: 0}
    - target: {fileID: 4305907101023272046, guid: c0931c4da6d91ea429abedb10290dd16,
        type: 3}
      propertyPath: m_havePropertiesChanged
      value: 1
      objectReference: {fileID: 0}
    - target: {fileID: 4305907101023272046, guid: c0931c4da6d91ea429abedb10290dd16,
        type: 3}
      propertyPath: m_isInputParsingRequired
      value: 1
      objectReference: {fileID: 0}
    - target: {fileID: 4943773361295851263, guid: c0931c4da6d91ea429abedb10290dd16,
        type: 3}
      propertyPath: m_Name
      value: ToggleFeaturesPanel
      objectReference: {fileID: 0}
    - target: {fileID: 4943773361295851263, guid: c0931c4da6d91ea429abedb10290dd16,
        type: 3}
      propertyPath: m_IsActive
      value: 1
      objectReference: {fileID: 0}
    - target: {fileID: 5057653355905261972, guid: c0931c4da6d91ea429abedb10290dd16,
        type: 3}
      propertyPath: m_havePropertiesChanged
      value: 1
      objectReference: {fileID: 0}
    - target: {fileID: 5057653355905261972, guid: c0931c4da6d91ea429abedb10290dd16,
        type: 3}
      propertyPath: m_isInputParsingRequired
      value: 1
      objectReference: {fileID: 0}
    - target: {fileID: 6325538427078370090, guid: c0931c4da6d91ea429abedb10290dd16,
        type: 3}
      propertyPath: m_Mesh
      value: 
      objectReference: {fileID: 0}
    - target: {fileID: 6325538427078370132, guid: c0931c4da6d91ea429abedb10290dd16,
        type: 3}
      propertyPath: m_havePropertiesChanged
      value: 1
      objectReference: {fileID: 0}
    - target: {fileID: 6325538427078370132, guid: c0931c4da6d91ea429abedb10290dd16,
        type: 3}
      propertyPath: m_isInputParsingRequired
      value: 1
      objectReference: {fileID: 0}
    - target: {fileID: 6653879040808210676, guid: c0931c4da6d91ea429abedb10290dd16,
        type: 3}
      propertyPath: m_Mesh
      value: 
      objectReference: {fileID: 0}
    - target: {fileID: 7308736943140596521, guid: c0931c4da6d91ea429abedb10290dd16,
        type: 3}
      propertyPath: m_Mesh
      value: 
      objectReference: {fileID: 0}
    - target: {fileID: 7641567899972738933, guid: c0931c4da6d91ea429abedb10290dd16,
        type: 3}
      propertyPath: m_Mesh
      value: 
      objectReference: {fileID: 0}
    - target: {fileID: 8503270331930508642, guid: c0931c4da6d91ea429abedb10290dd16,
        type: 3}
      propertyPath: m_RootOrder
      value: 0
      objectReference: {fileID: 0}
    - target: {fileID: 8503270331930508642, guid: c0931c4da6d91ea429abedb10290dd16,
        type: 3}
      propertyPath: m_LocalPosition.x
      value: -0.038378604
      objectReference: {fileID: 0}
    - target: {fileID: 8503270331930508642, guid: c0931c4da6d91ea429abedb10290dd16,
        type: 3}
      propertyPath: m_LocalPosition.y
      value: -0.4125085
      objectReference: {fileID: 0}
    - target: {fileID: 8503270331930508642, guid: c0931c4da6d91ea429abedb10290dd16,
        type: 3}
      propertyPath: m_LocalPosition.z
      value: -0.4535303
      objectReference: {fileID: 0}
    - target: {fileID: 8503270331930508642, guid: c0931c4da6d91ea429abedb10290dd16,
        type: 3}
      propertyPath: m_LocalRotation.w
      value: 0.92387956
      objectReference: {fileID: 0}
    - target: {fileID: 8503270331930508642, guid: c0931c4da6d91ea429abedb10290dd16,
        type: 3}
      propertyPath: m_LocalRotation.x
      value: 0.38268343
      objectReference: {fileID: 0}
    - target: {fileID: 8503270331930508642, guid: c0931c4da6d91ea429abedb10290dd16,
        type: 3}
      propertyPath: m_LocalRotation.y
      value: -0
      objectReference: {fileID: 0}
    - target: {fileID: 8503270331930508642, guid: c0931c4da6d91ea429abedb10290dd16,
        type: 3}
      propertyPath: m_LocalRotation.z
      value: -0
      objectReference: {fileID: 0}
    - target: {fileID: 8503270331930508642, guid: c0931c4da6d91ea429abedb10290dd16,
        type: 3}
      propertyPath: m_LocalEulerAnglesHint.x
      value: 45
      objectReference: {fileID: 0}
    - target: {fileID: 8503270331930508642, guid: c0931c4da6d91ea429abedb10290dd16,
        type: 3}
      propertyPath: m_LocalEulerAnglesHint.y
      value: 0
      objectReference: {fileID: 0}
    - target: {fileID: 8503270331930508642, guid: c0931c4da6d91ea429abedb10290dd16,
        type: 3}
      propertyPath: m_LocalEulerAnglesHint.z
      value: 0
      objectReference: {fileID: 0}
    - target: {fileID: 9129280236375049023, guid: c0931c4da6d91ea429abedb10290dd16,
        type: 3}
      propertyPath: m_Mesh
      value: 
      objectReference: {fileID: 0}
    m_RemovedComponents:
    - {fileID: 1272738663672335838, guid: c0931c4da6d91ea429abedb10290dd16, type: 3}
    - {fileID: 6943337177222387468, guid: c0931c4da6d91ea429abedb10290dd16, type: 3}
    - {fileID: 93299919385884468, guid: c0931c4da6d91ea429abedb10290dd16, type: 3}
  m_SourcePrefab: {fileID: 100100000, guid: c0931c4da6d91ea429abedb10290dd16, type: 3}
--- !u!82 &914966060 stripped
AudioSource:
  m_CorrespondingSourceObject: {fileID: 4529492485766667979, guid: c0931c4da6d91ea429abedb10290dd16,
    type: 3}
  m_PrefabInstance: {fileID: 914966059}
  m_PrefabAsset: {fileID: 0}
--- !u!114 &914966061 stripped
MonoBehaviour:
  m_CorrespondingSourceObject: {fileID: 3183098002564305489, guid: c0931c4da6d91ea429abedb10290dd16,
    type: 3}
  m_PrefabInstance: {fileID: 914966059}
  m_PrefabAsset: {fileID: 0}
  m_GameObject: {fileID: 0}
  m_Enabled: 0
  m_EditorHideFlags: 0
  m_Script: {fileID: 11500000, guid: 4684083f6dff4a1d8a790bccc354fcf4, type: 3}
  m_Name: 
  m_EditorClassIdentifier: 
--- !u!114 &914966063 stripped
MonoBehaviour:
  m_CorrespondingSourceObject: {fileID: 6111504088444772018, guid: c0931c4da6d91ea429abedb10290dd16,
    type: 3}
  m_PrefabInstance: {fileID: 914966059}
  m_PrefabAsset: {fileID: 0}
  m_GameObject: {fileID: 0}
  m_Enabled: 1
  m_EditorHideFlags: 0
  m_Script: {fileID: 11500000, guid: 1410eac1ae94b4d4492a09cc368e152c, type: 3}
  m_Name: 
  m_EditorClassIdentifier: 
--- !u!1 &924532018
GameObject:
  m_ObjectHideFlags: 0
  m_CorrespondingSourceObject: {fileID: 0}
  m_PrefabInstance: {fileID: 0}
  m_PrefabAsset: {fileID: 0}
  serializedVersion: 6
  m_Component:
  - component: {fileID: 924532019}
  - component: {fileID: 924532020}
  m_Layer: 0
  m_Name: TargetObject (Sprite)
  m_TagString: Untagged
  m_Icon: {fileID: 0}
  m_NavMeshLayer: 0
  m_StaticEditorFlags: 0
  m_IsActive: 1
--- !u!4 &924532019
Transform:
  m_ObjectHideFlags: 0
  m_CorrespondingSourceObject: {fileID: 0}
  m_PrefabInstance: {fileID: 0}
  m_PrefabAsset: {fileID: 0}
  m_GameObject: {fileID: 924532018}
  m_LocalRotation: {x: -0, y: -0, z: -0, w: 1}
  m_LocalPosition: {x: -0.0054785907, y: -0.01590848, z: 0.13641131}
  m_LocalScale: {x: 0.19574684, y: 0.19574684, z: 0.19574684}
  m_Children: []
  m_Father: {fileID: 723593862}
  m_RootOrder: 1
  m_LocalEulerAnglesHint: {x: 0, y: 0, z: 0}
--- !u!212 &924532020
SpriteRenderer:
  m_ObjectHideFlags: 0
  m_CorrespondingSourceObject: {fileID: 0}
  m_PrefabInstance: {fileID: 0}
  m_PrefabAsset: {fileID: 0}
  m_GameObject: {fileID: 924532018}
  m_Enabled: 1
  m_CastShadows: 0
  m_ReceiveShadows: 0
  m_DynamicOccludee: 1
  m_MotionVectors: 1
  m_LightProbeUsage: 1
  m_ReflectionProbeUsage: 1
  m_RayTracingMode: 0
  m_RenderingLayerMask: 1
  m_RendererPriority: 0
  m_Materials:
  - {fileID: 10754, guid: 0000000000000000f000000000000000, type: 0}
  m_StaticBatchInfo:
    firstSubMesh: 0
    subMeshCount: 0
  m_StaticBatchRoot: {fileID: 0}
  m_ProbeAnchor: {fileID: 0}
  m_LightProbeVolumeOverride: {fileID: 0}
  m_ScaleInLightmap: 1
  m_ReceiveGI: 1
  m_PreserveUVs: 0
  m_IgnoreNormalsForChartDetection: 0
  m_ImportantGI: 0
  m_StitchLightmapSeams: 1
  m_SelectedEditorRenderState: 0
  m_MinimumChartSize: 4
  m_AutoUVMaxDistance: 0.5
  m_AutoUVMaxAngle: 89
  m_LightmapParameters: {fileID: 0}
  m_SortingLayerID: 0
  m_SortingLayer: 0
  m_SortingOrder: 0
  m_Sprite: {fileID: 21300000, guid: 7e29bd78484de85479d1437e5727d5a9, type: 3}
  m_Color: {r: 1, g: 1, b: 1, a: 0.24705882}
  m_FlipX: 0
  m_FlipY: 0
  m_DrawMode: 0
  m_Size: {x: 1.28, y: 1.28}
  m_AdaptiveModeThreshold: 0.5
  m_SpriteTileMode: 0
  m_WasSpriteAssigned: 1
  m_MaskInteraction: 0
  m_SpriteSortPoint: 0
--- !u!4 &1004607930 stripped
Transform:
  m_CorrespondingSourceObject: {fileID: 1368769713134566724, guid: 36ff76a9e7929f342915274725573e00,
    type: 3}
  m_PrefabInstance: {fileID: 1844810867}
  m_PrefabAsset: {fileID: 0}
--- !u!1 &1019617694
GameObject:
  m_ObjectHideFlags: 0
  m_CorrespondingSourceObject: {fileID: 0}
  m_PrefabInstance: {fileID: 0}
  m_PrefabAsset: {fileID: 0}
  serializedVersion: 6
  m_Component:
  - component: {fileID: 1019617695}
  m_Layer: 0
  m_Name: MixedRealityPlayspace
  m_TagString: Untagged
  m_Icon: {fileID: 0}
  m_NavMeshLayer: 0
  m_StaticEditorFlags: 0
  m_IsActive: 1
--- !u!4 &1019617695
Transform:
  m_ObjectHideFlags: 0
  m_CorrespondingSourceObject: {fileID: 0}
  m_PrefabInstance: {fileID: 0}
  m_PrefabAsset: {fileID: 0}
  m_GameObject: {fileID: 1019617694}
  m_LocalRotation: {x: 0, y: 0, z: 0, w: 1}
  m_LocalPosition: {x: 0, y: 0, z: 0}
  m_LocalScale: {x: 1, y: 1, z: 1}
  m_Children:
  - {fileID: 1607275048}
  m_Father: {fileID: 0}
  m_RootOrder: 2
  m_LocalEulerAnglesHint: {x: 0, y: 0, z: 0}
--- !u!1 &1052274461
GameObject:
  m_ObjectHideFlags: 0
  m_CorrespondingSourceObject: {fileID: 0}
  m_PrefabInstance: {fileID: 0}
  m_PrefabAsset: {fileID: 0}
  serializedVersion: 6
  m_Component:
  - component: {fileID: 1052274462}
  - component: {fileID: 1052274465}
  - component: {fileID: 1052274464}
  - component: {fileID: 1052274463}
  m_Layer: 0
  m_Name: TargetObject (Mesh)
  m_TagString: Untagged
  m_Icon: {fileID: 0}
  m_NavMeshLayer: 0
  m_StaticEditorFlags: 0
  m_IsActive: 1
--- !u!4 &1052274462
Transform:
  m_ObjectHideFlags: 0
  m_CorrespondingSourceObject: {fileID: 0}
  m_PrefabInstance: {fileID: 0}
  m_PrefabAsset: {fileID: 0}
  m_GameObject: {fileID: 1052274461}
  m_LocalRotation: {x: -0.11344119, y: -0.3727586, z: 0.046988882, w: 0.9197686}
  m_LocalPosition: {x: 0.0009769779, y: -0.015908465, z: 0.045769572}
  m_LocalScale: {x: 0.10124326, y: 0.1012432, z: 0.10124326}
  m_Children: []
  m_Father: {fileID: 904212061}
  m_RootOrder: 0
  m_LocalEulerAnglesHint: {x: -10, y: -45, z: 10}
--- !u!65 &1052274463
BoxCollider:
  m_ObjectHideFlags: 0
  m_CorrespondingSourceObject: {fileID: 0}
  m_PrefabInstance: {fileID: 0}
  m_PrefabAsset: {fileID: 0}
  m_GameObject: {fileID: 1052274461}
  m_Material: {fileID: 0}
  m_IsTrigger: 0
  m_Enabled: 0
  serializedVersion: 2
  m_Size: {x: 1, y: 1, z: 1}
  m_Center: {x: 0, y: 0, z: 0}
--- !u!23 &1052274464
MeshRenderer:
  m_ObjectHideFlags: 0
  m_CorrespondingSourceObject: {fileID: 0}
  m_PrefabInstance: {fileID: 0}
  m_PrefabAsset: {fileID: 0}
  m_GameObject: {fileID: 1052274461}
  m_Enabled: 1
  m_CastShadows: 1
  m_ReceiveShadows: 1
  m_DynamicOccludee: 1
  m_MotionVectors: 1
  m_LightProbeUsage: 1
  m_ReflectionProbeUsage: 1
  m_RayTracingMode: 2
  m_RenderingLayerMask: 1
  m_RendererPriority: 0
  m_Materials:
  - {fileID: 2100000, guid: 27a6136d64696da4eba1b89b3df8d3df, type: 2}
  m_StaticBatchInfo:
    firstSubMesh: 0
    subMeshCount: 0
  m_StaticBatchRoot: {fileID: 0}
  m_ProbeAnchor: {fileID: 0}
  m_LightProbeVolumeOverride: {fileID: 0}
  m_ScaleInLightmap: 1
  m_ReceiveGI: 1
  m_PreserveUVs: 0
  m_IgnoreNormalsForChartDetection: 0
  m_ImportantGI: 0
  m_StitchLightmapSeams: 1
  m_SelectedEditorRenderState: 3
  m_MinimumChartSize: 4
  m_AutoUVMaxDistance: 0.5
  m_AutoUVMaxAngle: 89
  m_LightmapParameters: {fileID: 0}
  m_SortingLayerID: 0
  m_SortingLayer: 0
  m_SortingOrder: 0
--- !u!33 &1052274465
MeshFilter:
  m_ObjectHideFlags: 0
  m_CorrespondingSourceObject: {fileID: 0}
  m_PrefabInstance: {fileID: 0}
  m_PrefabAsset: {fileID: 0}
  m_GameObject: {fileID: 1052274461}
  m_Mesh: {fileID: 10202, guid: 0000000000000000e000000000000000, type: 0}
--- !u!1 &1102851793 stripped
GameObject:
  m_CorrespondingSourceObject: {fileID: 3885370230430447826, guid: 36ff76a9e7929f342915274725573e00,
    type: 3}
  m_PrefabInstance: {fileID: 1844810867}
  m_PrefabAsset: {fileID: 0}
--- !u!1 &1159113901
GameObject:
  m_ObjectHideFlags: 0
  m_CorrespondingSourceObject: {fileID: 0}
  m_PrefabInstance: {fileID: 0}
  m_PrefabAsset: {fileID: 0}
  serializedVersion: 6
  m_Component:
  - component: {fileID: 1159113903}
  - component: {fileID: 1159113902}
  m_Layer: 0
  m_Name: Directional Light
  m_TagString: Untagged
  m_Icon: {fileID: 0}
  m_NavMeshLayer: 0
  m_StaticEditorFlags: 0
  m_IsActive: 1
--- !u!108 &1159113902
Light:
  m_ObjectHideFlags: 0
  m_CorrespondingSourceObject: {fileID: 0}
  m_PrefabInstance: {fileID: 0}
  m_PrefabAsset: {fileID: 0}
  m_GameObject: {fileID: 1159113901}
  m_Enabled: 1
  serializedVersion: 10
  m_Type: 1
  m_Shape: 0
  m_Color: {r: 1, g: 0.95686275, b: 0.8392157, a: 1}
  m_Intensity: 1
  m_Range: 10
  m_SpotAngle: 30
  m_InnerSpotAngle: 21.80208
  m_CookieSize: 10
  m_Shadows:
    m_Type: 2
    m_Resolution: -1
    m_CustomResolution: -1
    m_Strength: 1
    m_Bias: 0.05
    m_NormalBias: 0.4
    m_NearPlane: 0.2
    m_CullingMatrixOverride:
      e00: 1
      e01: 0
      e02: 0
      e03: 0
      e10: 0
      e11: 1
      e12: 0
      e13: 0
      e20: 0
      e21: 0
      e22: 1
      e23: 0
      e30: 0
      e31: 0
      e32: 0
      e33: 1
    m_UseCullingMatrixOverride: 0
  m_Cookie: {fileID: 0}
  m_DrawHalo: 0
  m_Flare: {fileID: 0}
  m_RenderMode: 0
  m_CullingMask:
    serializedVersion: 2
    m_Bits: 4294967295
  m_RenderingLayerMask: 1
  m_Lightmapping: 4
  m_LightShadowCasterMode: 0
  m_AreaSize: {x: 1, y: 1}
  m_BounceIntensity: 1
  m_ColorTemperature: 6570
  m_UseColorTemperature: 0
  m_BoundingSphereOverride: {x: 0, y: 0, z: 0, w: 0}
  m_UseBoundingSphereOverride: 0
  m_ShadowRadius: 0
  m_ShadowAngle: 0
--- !u!4 &1159113903
Transform:
  m_ObjectHideFlags: 0
  m_CorrespondingSourceObject: {fileID: 0}
  m_PrefabInstance: {fileID: 0}
  m_PrefabAsset: {fileID: 0}
  m_GameObject: {fileID: 1159113901}
  m_LocalRotation: {x: 0.40821788, y: -0.23456968, z: 0.10938163, w: 0.8754261}
  m_LocalPosition: {x: 0, y: 3, z: 0}
  m_LocalScale: {x: 1, y: 1, z: 1}
  m_Children: []
  m_Father: {fileID: 0}
  m_RootOrder: 0
  m_LocalEulerAnglesHint: {x: 50, y: -30, z: 0}
--- !u!1 &1322948236
GameObject:
  m_ObjectHideFlags: 0
  m_CorrespondingSourceObject: {fileID: 0}
  m_PrefabInstance: {fileID: 0}
  m_PrefabAsset: {fileID: 0}
  serializedVersion: 6
  m_Component:
  - component: {fileID: 1322948237}
  - component: {fileID: 1322948240}
  - component: {fileID: 1322948239}
  - component: {fileID: 1322948238}
  m_Layer: 0
  m_Name: TargetObject (Mesh)
  m_TagString: Untagged
  m_Icon: {fileID: 0}
  m_NavMeshLayer: 0
  m_StaticEditorFlags: 0
  m_IsActive: 1
--- !u!4 &1322948237
Transform:
  m_ObjectHideFlags: 0
  m_CorrespondingSourceObject: {fileID: 0}
  m_PrefabInstance: {fileID: 0}
  m_PrefabAsset: {fileID: 0}
  m_GameObject: {fileID: 1322948236}
  m_LocalRotation: {x: 0.205335, y: 0.7663205, z: 0.58801836, w: -0.15755907}
  m_LocalPosition: {x: 0.0009769797, y: -0.077999994, z: 0.07799995}
  m_LocalScale: {x: 0.2178789, y: 0.21787876, z: 0.21787891}
  m_Children: []
  m_Father: {fileID: 1927950888}
  m_RootOrder: 0
  m_LocalEulerAnglesHint: {x: -75, y: 180, z: 30}
--- !u!65 &1322948238
BoxCollider:
  m_ObjectHideFlags: 0
  m_CorrespondingSourceObject: {fileID: 0}
  m_PrefabInstance: {fileID: 0}
  m_PrefabAsset: {fileID: 0}
  m_GameObject: {fileID: 1322948236}
  m_Material: {fileID: 0}
  m_IsTrigger: 0
  m_Enabled: 0
  serializedVersion: 2
  m_Size: {x: 1, y: 1, z: 1}
  m_Center: {x: 0, y: 0, z: 0}
--- !u!23 &1322948239
MeshRenderer:
  m_ObjectHideFlags: 0
  m_CorrespondingSourceObject: {fileID: 0}
  m_PrefabInstance: {fileID: 0}
  m_PrefabAsset: {fileID: 0}
  m_GameObject: {fileID: 1322948236}
  m_Enabled: 1
  m_CastShadows: 1
  m_ReceiveShadows: 1
  m_DynamicOccludee: 1
  m_MotionVectors: 1
  m_LightProbeUsage: 1
  m_ReflectionProbeUsage: 1
  m_RayTracingMode: 2
  m_RenderingLayerMask: 1
  m_RendererPriority: 0
  m_Materials:
  - {fileID: 2100000, guid: f28fd718b30341e8b834f80861d18aed, type: 2}
  m_StaticBatchInfo:
    firstSubMesh: 0
    subMeshCount: 0
  m_StaticBatchRoot: {fileID: 0}
  m_ProbeAnchor: {fileID: 0}
  m_LightProbeVolumeOverride: {fileID: 0}
  m_ScaleInLightmap: 1
  m_ReceiveGI: 1
  m_PreserveUVs: 0
  m_IgnoreNormalsForChartDetection: 0
  m_ImportantGI: 0
  m_StitchLightmapSeams: 1
  m_SelectedEditorRenderState: 3
  m_MinimumChartSize: 4
  m_AutoUVMaxDistance: 0.5
  m_AutoUVMaxAngle: 89
  m_LightmapParameters: {fileID: 0}
  m_SortingLayerID: 0
  m_SortingLayer: 0
  m_SortingOrder: 0
--- !u!33 &1322948240
MeshFilter:
  m_ObjectHideFlags: 0
  m_CorrespondingSourceObject: {fileID: 0}
  m_PrefabInstance: {fileID: 0}
  m_PrefabAsset: {fileID: 0}
  m_GameObject: {fileID: 1322948236}
  m_Mesh: {fileID: 4300002, guid: 1104611d051d4e42a68391888b61b32e, type: 3}
--- !u!1 &1382463659
GameObject:
  m_ObjectHideFlags: 0
  m_CorrespondingSourceObject: {fileID: 0}
  m_PrefabInstance: {fileID: 0}
  m_PrefabAsset: {fileID: 0}
  serializedVersion: 6
  m_Component:
  - component: {fileID: 1382463660}
  m_Layer: 0
  m_Name: SceneContent
  m_TagString: Untagged
  m_Icon: {fileID: 0}
  m_NavMeshLayer: 0
  m_StaticEditorFlags: 0
  m_IsActive: 1
--- !u!4 &1382463660
Transform:
  m_ObjectHideFlags: 0
  m_CorrespondingSourceObject: {fileID: 0}
  m_PrefabInstance: {fileID: 0}
  m_PrefabAsset: {fileID: 0}
  m_GameObject: {fileID: 1382463659}
  m_LocalRotation: {x: 0, y: 0, z: 0, w: 1}
  m_LocalPosition: {x: -0.029521398, y: 0.06410848, z: 1.1160303}
  m_LocalScale: {x: 1, y: 1, z: 1}
  m_Children:
  - {fileID: 1497166524}
  - {fileID: 381596675}
  - {fileID: 723593862}
  - {fileID: 904212061}
  - {fileID: 1927950888}
  - {fileID: 1672675964}
  m_Father: {fileID: 0}
  m_RootOrder: 3
  m_LocalEulerAnglesHint: {x: 0, y: 0, z: 0}
--- !u!1 &1457291350
GameObject:
  m_ObjectHideFlags: 0
  m_CorrespondingSourceObject: {fileID: 0}
  m_PrefabInstance: {fileID: 0}
  m_PrefabAsset: {fileID: 0}
  serializedVersion: 6
  m_Component:
  - component: {fileID: 1457291351}
  - component: {fileID: 1457291352}
  m_Layer: 0
  m_Name: TargetObject (Sprite)
  m_TagString: Untagged
  m_Icon: {fileID: 0}
  m_NavMeshLayer: 0
  m_StaticEditorFlags: 0
  m_IsActive: 1
--- !u!4 &1457291351
Transform:
  m_ObjectHideFlags: 0
  m_CorrespondingSourceObject: {fileID: 0}
  m_PrefabInstance: {fileID: 0}
  m_PrefabAsset: {fileID: 0}
  m_GameObject: {fileID: 1457291350}
  m_LocalRotation: {x: -0, y: -0, z: -0, w: 1}
  m_LocalPosition: {x: -0.0054785907, y: -0.01590848, z: 0.13641131}
  m_LocalScale: {x: 0.19574684, y: 0.19574684, z: 0.19574684}
  m_Children: []
  m_Father: {fileID: 1927950888}
  m_RootOrder: 1
  m_LocalEulerAnglesHint: {x: 0, y: 0, z: 0}
--- !u!212 &1457291352
SpriteRenderer:
  m_ObjectHideFlags: 0
  m_CorrespondingSourceObject: {fileID: 0}
  m_PrefabInstance: {fileID: 0}
  m_PrefabAsset: {fileID: 0}
  m_GameObject: {fileID: 1457291350}
  m_Enabled: 1
  m_CastShadows: 0
  m_ReceiveShadows: 0
  m_DynamicOccludee: 1
  m_MotionVectors: 1
  m_LightProbeUsage: 1
  m_ReflectionProbeUsage: 1
  m_RayTracingMode: 0
  m_RenderingLayerMask: 1
  m_RendererPriority: 0
  m_Materials:
  - {fileID: 10754, guid: 0000000000000000f000000000000000, type: 0}
  m_StaticBatchInfo:
    firstSubMesh: 0
    subMeshCount: 0
  m_StaticBatchRoot: {fileID: 0}
  m_ProbeAnchor: {fileID: 0}
  m_LightProbeVolumeOverride: {fileID: 0}
  m_ScaleInLightmap: 1
  m_ReceiveGI: 1
  m_PreserveUVs: 0
  m_IgnoreNormalsForChartDetection: 0
  m_ImportantGI: 0
  m_StitchLightmapSeams: 1
  m_SelectedEditorRenderState: 0
  m_MinimumChartSize: 4
  m_AutoUVMaxDistance: 0.5
  m_AutoUVMaxAngle: 89
  m_LightmapParameters: {fileID: 0}
  m_SortingLayerID: 0
  m_SortingLayer: 0
  m_SortingOrder: 0
  m_Sprite: {fileID: 21300000, guid: 7e29bd78484de85479d1437e5727d5a9, type: 3}
  m_Color: {r: 1, g: 1, b: 1, a: 0.24705882}
  m_FlipX: 0
  m_FlipY: 0
  m_DrawMode: 0
  m_Size: {x: 1.28, y: 1.28}
  m_AdaptiveModeThreshold: 0.5
  m_SpriteTileMode: 0
  m_WasSpriteAssigned: 1
  m_MaskInteraction: 0
  m_SpriteSortPoint: 0
--- !u!4 &1497166524 stripped
Transform:
  m_CorrespondingSourceObject: {fileID: 8503270331930508642, guid: c0931c4da6d91ea429abedb10290dd16,
    type: 3}
  m_PrefabInstance: {fileID: 914966059}
  m_PrefabAsset: {fileID: 0}
--- !u!1 &1515770499
GameObject:
  m_ObjectHideFlags: 0
  m_CorrespondingSourceObject: {fileID: 0}
  m_PrefabInstance: {fileID: 0}
  m_PrefabAsset: {fileID: 0}
  serializedVersion: 6
  m_Component:
  - component: {fileID: 1515770501}
  - component: {fileID: 1515770500}
  m_Layer: 0
  m_Name: MixedRealityToolkit
  m_TagString: Untagged
  m_Icon: {fileID: 0}
  m_NavMeshLayer: 0
  m_StaticEditorFlags: 0
  m_IsActive: 1
--- !u!114 &1515770500
MonoBehaviour:
  m_ObjectHideFlags: 0
  m_CorrespondingSourceObject: {fileID: 0}
  m_PrefabInstance: {fileID: 0}
  m_PrefabAsset: {fileID: 0}
  m_GameObject: {fileID: 1515770499}
  m_Enabled: 1
  m_EditorHideFlags: 0
  m_Script: {fileID: 11500000, guid: 83d9acc7968244a8886f3af591305bcb, type: 3}
  m_Name: 
  m_EditorClassIdentifier: 
  activeProfile: {fileID: 11400000, guid: 7e7c962b9eb9dfa44993d5b2f2576752, type: 2}
--- !u!4 &1515770501
Transform:
  m_ObjectHideFlags: 0
  m_CorrespondingSourceObject: {fileID: 0}
  m_PrefabInstance: {fileID: 0}
  m_PrefabAsset: {fileID: 0}
  m_GameObject: {fileID: 1515770499}
  m_LocalRotation: {x: 0, y: 0, z: 0, w: 1}
  m_LocalPosition: {x: 0, y: 0, z: 0}
  m_LocalScale: {x: 1, y: 1, z: 1}
  m_Children: []
  m_Father: {fileID: 0}
  m_RootOrder: 1
  m_LocalEulerAnglesHint: {x: 0, y: 0, z: 0}
--- !u!1 &1589750493
GameObject:
  m_ObjectHideFlags: 0
  m_CorrespondingSourceObject: {fileID: 0}
  m_PrefabInstance: {fileID: 0}
  m_PrefabAsset: {fileID: 0}
  serializedVersion: 6
  m_Component:
  - component: {fileID: 1589750494}
  - component: {fileID: 1589750495}
  m_Layer: 0
  m_Name: TargetObject (Sprite)
  m_TagString: Untagged
  m_Icon: {fileID: 0}
  m_NavMeshLayer: 0
  m_StaticEditorFlags: 0
  m_IsActive: 1
--- !u!4 &1589750494
Transform:
  m_ObjectHideFlags: 0
  m_CorrespondingSourceObject: {fileID: 0}
  m_PrefabInstance: {fileID: 0}
  m_PrefabAsset: {fileID: 0}
  m_GameObject: {fileID: 1589750493}
  m_LocalRotation: {x: -0, y: -0, z: -0, w: 1}
  m_LocalPosition: {x: -0.0054786056, y: -0.01590848, z: 0.13641131}
  m_LocalScale: {x: 0.19574684, y: 0.19574684, z: 0.19574684}
  m_Children: []
  m_Father: {fileID: 904212061}
  m_RootOrder: 1
  m_LocalEulerAnglesHint: {x: 0, y: 0, z: 0}
--- !u!212 &1589750495
SpriteRenderer:
  m_ObjectHideFlags: 0
  m_CorrespondingSourceObject: {fileID: 0}
  m_PrefabInstance: {fileID: 0}
  m_PrefabAsset: {fileID: 0}
  m_GameObject: {fileID: 1589750493}
  m_Enabled: 1
  m_CastShadows: 0
  m_ReceiveShadows: 0
  m_DynamicOccludee: 1
  m_MotionVectors: 1
  m_LightProbeUsage: 1
  m_ReflectionProbeUsage: 1
  m_RayTracingMode: 0
  m_RenderingLayerMask: 1
  m_RendererPriority: 0
  m_Materials:
  - {fileID: 10754, guid: 0000000000000000f000000000000000, type: 0}
  m_StaticBatchInfo:
    firstSubMesh: 0
    subMeshCount: 0
  m_StaticBatchRoot: {fileID: 0}
  m_ProbeAnchor: {fileID: 0}
  m_LightProbeVolumeOverride: {fileID: 0}
  m_ScaleInLightmap: 1
  m_ReceiveGI: 1
  m_PreserveUVs: 0
  m_IgnoreNormalsForChartDetection: 0
  m_ImportantGI: 0
  m_StitchLightmapSeams: 1
  m_SelectedEditorRenderState: 0
  m_MinimumChartSize: 4
  m_AutoUVMaxDistance: 0.5
  m_AutoUVMaxAngle: 89
  m_LightmapParameters: {fileID: 0}
  m_SortingLayerID: 0
  m_SortingLayer: 0
  m_SortingOrder: 0
  m_Sprite: {fileID: 21300000, guid: 7e29bd78484de85479d1437e5727d5a9, type: 3}
  m_Color: {r: 1, g: 1, b: 1, a: 0.24705882}
  m_FlipX: 0
  m_FlipY: 0
  m_DrawMode: 0
  m_Size: {x: 1.28, y: 1.28}
  m_AdaptiveModeThreshold: 0.5
  m_SpriteTileMode: 0
  m_WasSpriteAssigned: 1
  m_MaskInteraction: 0
  m_SpriteSortPoint: 0
--- !u!1 &1607275045
GameObject:
  m_ObjectHideFlags: 0
  m_CorrespondingSourceObject: {fileID: 0}
  m_PrefabInstance: {fileID: 0}
  m_PrefabAsset: {fileID: 0}
  serializedVersion: 6
  m_Component:
  - component: {fileID: 1607275048}
  - component: {fileID: 1607275047}
  - component: {fileID: 1607275046}
  - component: {fileID: 1607275051}
  - component: {fileID: 1607275050}
  - component: {fileID: 1607275049}
  m_Layer: 0
  m_Name: Main Camera
  m_TagString: MainCamera
  m_Icon: {fileID: 0}
  m_NavMeshLayer: 0
  m_StaticEditorFlags: 0
  m_IsActive: 1
--- !u!81 &1607275046
AudioListener:
  m_ObjectHideFlags: 0
  m_CorrespondingSourceObject: {fileID: 0}
  m_PrefabInstance: {fileID: 0}
  m_PrefabAsset: {fileID: 0}
  m_GameObject: {fileID: 1607275045}
  m_Enabled: 1
--- !u!20 &1607275047
Camera:
  m_ObjectHideFlags: 0
  m_CorrespondingSourceObject: {fileID: 0}
  m_PrefabInstance: {fileID: 0}
  m_PrefabAsset: {fileID: 0}
  m_GameObject: {fileID: 1607275045}
  m_Enabled: 1
  serializedVersion: 2
  m_ClearFlags: 2
  m_BackGroundColor: {r: 0, g: 0, b: 0, a: 1}
  m_projectionMatrixMode: 1
  m_GateFitMode: 2
  m_FOVAxisMode: 0
  m_SensorSize: {x: 36, y: 24}
  m_LensShift: {x: 0, y: 0}
  m_FocalLength: 50
  m_NormalizedViewPortRect:
    serializedVersion: 2
    x: 0
    y: 0
    width: 1
    height: 1
  near clip plane: 0.1
  far clip plane: 1000
  field of view: 60
  orthographic: 0
  orthographic size: 5
  m_Depth: -1
  m_CullingMask:
    serializedVersion: 2
    m_Bits: 4294967295
  m_RenderingPath: -1
  m_TargetTexture: {fileID: 0}
  m_TargetDisplay: 0
  m_TargetEye: 3
  m_HDR: 1
  m_AllowMSAA: 1
  m_AllowDynamicResolution: 0
  m_ForceIntoRT: 0
  m_OcclusionCulling: 1
  m_StereoConvergence: 10
  m_StereoSeparation: 0.022
--- !u!4 &1607275048
Transform:
  m_ObjectHideFlags: 0
  m_CorrespondingSourceObject: {fileID: 0}
  m_PrefabInstance: {fileID: 0}
  m_PrefabAsset: {fileID: 0}
  m_GameObject: {fileID: 1607275045}
  m_LocalRotation: {x: -0, y: -0, z: -0, w: 1}
  m_LocalPosition: {x: 0, y: 0, z: 0}
  m_LocalScale: {x: 1, y: 1, z: 1}
  m_Children: []
  m_Father: {fileID: 1019617695}
  m_RootOrder: 0
  m_LocalEulerAnglesHint: {x: 0, y: 0, z: 0}
--- !u!114 &1607275049
MonoBehaviour:
  m_ObjectHideFlags: 0
  m_CorrespondingSourceObject: {fileID: 0}
  m_PrefabInstance: {fileID: 0}
  m_PrefabAsset: {fileID: 0}
  m_GameObject: {fileID: 1607275045}
  m_Enabled: 1
  m_EditorHideFlags: 0
  m_Script: {fileID: 11500000, guid: bf98dd1206224111a38765365e98e207, type: 3}
  m_Name: 
  m_EditorClassIdentifier: 
  lockCursorWhenFocusLocked: 1
  setCursorInvisibleWhenFocusLocked: 0
  maxGazeCollisionDistance: 10
  raycastLayerMasks:
  - serializedVersion: 2
    m_Bits: 4294967291
  stabilizer:
    storedStabilitySamples: 60
  gazeTransform: {fileID: 0}
  minHeadVelocityThreshold: 0.5
  maxHeadVelocityThreshold: 2
--- !u!114 &1607275050
MonoBehaviour:
  m_ObjectHideFlags: 0
  m_CorrespondingSourceObject: {fileID: 0}
  m_PrefabInstance: {fileID: 0}
  m_PrefabAsset: {fileID: 0}
  m_GameObject: {fileID: 1607275045}
  m_Enabled: 1
  m_EditorHideFlags: 0
  m_Script: {fileID: 11500000, guid: 7a21b486d0bb44444b1418aaa38b44de, type: 3}
  m_Name: 
  m_EditorClassIdentifier: 
  m_HorizontalAxis: Horizontal
  m_VerticalAxis: Vertical
  m_SubmitButton: Submit
  m_CancelButton: Cancel
  m_InputActionsPerSecond: 10
  m_RepeatDelay: 0.5
  m_ForceModuleActive: 0
--- !u!114 &1607275051
MonoBehaviour:
  m_ObjectHideFlags: 0
  m_CorrespondingSourceObject: {fileID: 0}
  m_PrefabInstance: {fileID: 0}
  m_PrefabAsset: {fileID: 0}
  m_GameObject: {fileID: 1607275045}
  m_Enabled: 1
  m_EditorHideFlags: 0
  m_Script: {fileID: 11500000, guid: 76c392e42b5098c458856cdf6ecaaaa1, type: 3}
  m_Name: 
  m_EditorClassIdentifier: 
  m_FirstSelected: {fileID: 0}
  m_sendNavigationEvents: 1
  m_DragThreshold: 10
--- !u!1 &1652642001
GameObject:
  m_ObjectHideFlags: 0
  m_CorrespondingSourceObject: {fileID: 0}
  m_PrefabInstance: {fileID: 0}
  m_PrefabAsset: {fileID: 0}
  serializedVersion: 6
  m_Component:
  - component: {fileID: 1652642002}
  - component: {fileID: 1652642003}
  m_Layer: 0
  m_Name: RainbowButton
  m_TagString: Untagged
  m_Icon: {fileID: 0}
  m_NavMeshLayer: 0
  m_StaticEditorFlags: 0
  m_IsActive: 1
--- !u!4 &1652642002
Transform:
  m_ObjectHideFlags: 0
  m_CorrespondingSourceObject: {fileID: 0}
  m_PrefabInstance: {fileID: 0}
  m_PrefabAsset: {fileID: 0}
  m_GameObject: {fileID: 1652642001}
  m_LocalRotation: {x: -0, y: -0, z: -0, w: 1}
  m_LocalPosition: {x: 0, y: 0.002, z: 0}
  m_LocalScale: {x: 0.02, y: 0.02, z: 0.01}
  m_Children: []
  m_Father: {fileID: 230973490}
  m_RootOrder: 4
  m_LocalEulerAnglesHint: {x: 0, y: 0, z: 0}
--- !u!212 &1652642003
SpriteRenderer:
  m_ObjectHideFlags: 0
  m_CorrespondingSourceObject: {fileID: 0}
  m_PrefabInstance: {fileID: 0}
  m_PrefabAsset: {fileID: 0}
  m_GameObject: {fileID: 1652642001}
  m_Enabled: 1
  m_CastShadows: 0
  m_ReceiveShadows: 0
  m_DynamicOccludee: 1
  m_MotionVectors: 1
  m_LightProbeUsage: 1
  m_ReflectionProbeUsage: 1
  m_RayTracingMode: 0
  m_RenderingLayerMask: 1
  m_RendererPriority: 0
  m_Materials:
  - {fileID: 10754, guid: 0000000000000000f000000000000000, type: 0}
  m_StaticBatchInfo:
    firstSubMesh: 0
    subMeshCount: 0
  m_StaticBatchRoot: {fileID: 0}
  m_ProbeAnchor: {fileID: 0}
  m_LightProbeVolumeOverride: {fileID: 0}
  m_ScaleInLightmap: 1
  m_ReceiveGI: 1
  m_PreserveUVs: 0
  m_IgnoreNormalsForChartDetection: 0
  m_ImportantGI: 0
  m_StitchLightmapSeams: 1
  m_SelectedEditorRenderState: 0
  m_MinimumChartSize: 4
  m_AutoUVMaxDistance: 0.5
  m_AutoUVMaxAngle: 89
  m_LightmapParameters: {fileID: 0}
  m_SortingLayerID: 0
  m_SortingLayer: 0
  m_SortingOrder: 0
  m_Sprite: {fileID: 21300000, guid: e7e105f170f3abb4982e01be68c40563, type: 3}
  m_Color: {r: 1, g: 1, b: 1, a: 1}
  m_FlipX: 0
  m_FlipY: 0
  m_DrawMode: 0
  m_Size: {x: 0.8, y: 0.8}
  m_AdaptiveModeThreshold: 0.5
  m_SpriteTileMode: 0
  m_WasSpriteAssigned: 1
  m_MaskInteraction: 0
  m_SpriteSortPoint: 0
--- !u!1001 &1665354953
PrefabInstance:
  m_ObjectHideFlags: 0
  serializedVersion: 2
  m_Modification:
    m_TransformParent: {fileID: 723593862}
    m_Modifications:
    - target: {fileID: 1480790238652100459, guid: 36ff76a9e7929f342915274725573e00,
        type: 3}
      propertyPath: m_Mesh
      value: 
      objectReference: {fileID: 0}
    - target: {fileID: 3885370230430447826, guid: 36ff76a9e7929f342915274725573e00,
        type: 3}
      propertyPath: m_Name
      value: PressableButtonHoloLens2_48x48
      objectReference: {fileID: 0}
    - target: {fileID: 3885370230883199266, guid: 36ff76a9e7929f342915274725573e00,
        type: 3}
      propertyPath: m_text
      value: Color
      objectReference: {fileID: 0}
    - target: {fileID: 3885370230883199266, guid: 36ff76a9e7929f342915274725573e00,
        type: 3}
      propertyPath: m_textInfo.characterCount
      value: 5
      objectReference: {fileID: 0}
    - target: {fileID: 3885370230883199324, guid: 36ff76a9e7929f342915274725573e00,
        type: 3}
      propertyPath: m_Mesh
      value: 
      objectReference: {fileID: 0}
    - target: {fileID: 3885370232023760435, guid: 36ff76a9e7929f342915274725573e00,
        type: 3}
      propertyPath: m_RootOrder
      value: 3
      objectReference: {fileID: 0}
    - target: {fileID: 3885370232023760435, guid: 36ff76a9e7929f342915274725573e00,
        type: 3}
      propertyPath: m_LocalPosition.x
      value: 0
      objectReference: {fileID: 0}
    - target: {fileID: 3885370232023760435, guid: 36ff76a9e7929f342915274725573e00,
        type: 3}
      propertyPath: m_LocalPosition.y
      value: -0.064
      objectReference: {fileID: 0}
    - target: {fileID: 3885370232023760435, guid: 36ff76a9e7929f342915274725573e00,
        type: 3}
      propertyPath: m_LocalPosition.z
      value: -0.103000045
      objectReference: {fileID: 0}
    - target: {fileID: 3885370232023760435, guid: 36ff76a9e7929f342915274725573e00,
        type: 3}
      propertyPath: m_LocalRotation.w
      value: 1
      objectReference: {fileID: 0}
    - target: {fileID: 3885370232023760435, guid: 36ff76a9e7929f342915274725573e00,
        type: 3}
      propertyPath: m_LocalRotation.x
      value: -0
      objectReference: {fileID: 0}
    - target: {fileID: 3885370232023760435, guid: 36ff76a9e7929f342915274725573e00,
        type: 3}
      propertyPath: m_LocalRotation.y
      value: -0
      objectReference: {fileID: 0}
    - target: {fileID: 3885370232023760435, guid: 36ff76a9e7929f342915274725573e00,
        type: 3}
      propertyPath: m_LocalRotation.z
      value: -0
      objectReference: {fileID: 0}
    - target: {fileID: 3885370232023760435, guid: 36ff76a9e7929f342915274725573e00,
        type: 3}
      propertyPath: m_LocalEulerAnglesHint.x
      value: 0
      objectReference: {fileID: 0}
    - target: {fileID: 3885370232023760435, guid: 36ff76a9e7929f342915274725573e00,
        type: 3}
      propertyPath: m_LocalEulerAnglesHint.y
      value: 0
      objectReference: {fileID: 0}
    - target: {fileID: 3885370232023760435, guid: 36ff76a9e7929f342915274725573e00,
        type: 3}
      propertyPath: m_LocalEulerAnglesHint.z
      value: 0
      objectReference: {fileID: 0}
    - target: {fileID: 3885370232058647678, guid: 36ff76a9e7929f342915274725573e00,
        type: 3}
      propertyPath: m_IsActive
      value: 0
      objectReference: {fileID: 0}
    - target: {fileID: 5370477392995625864, guid: 36ff76a9e7929f342915274725573e00,
        type: 3}
      propertyPath: m_text
      value: Say "Color"
      objectReference: {fileID: 0}
    - target: {fileID: 5370477392995625864, guid: 36ff76a9e7929f342915274725573e00,
        type: 3}
      propertyPath: m_textInfo.characterCount
      value: 11
      objectReference: {fileID: 0}
    - target: {fileID: 5956172336509982321, guid: 36ff76a9e7929f342915274725573e00,
        type: 3}
      propertyPath: OnClick.m_PersistentCalls.m_Calls.Array.size
      value: 1
      objectReference: {fileID: 0}
    - target: {fileID: 5956172336509982321, guid: 36ff76a9e7929f342915274725573e00,
        type: 3}
      propertyPath: OnClick.m_PersistentCalls.m_Calls.Array.data[0].m_Mode
      value: 2
      objectReference: {fileID: 0}
    - target: {fileID: 5956172336509982321, guid: 36ff76a9e7929f342915274725573e00,
        type: 3}
      propertyPath: OnClick.m_PersistentCalls.m_Calls.Array.data[1].m_Mode
      value: 6
      objectReference: {fileID: 0}
    - target: {fileID: 5956172336509982321, guid: 36ff76a9e7929f342915274725573e00,
        type: 3}
      propertyPath: OnClick.m_PersistentCalls.m_Calls.Array.data[2].m_Mode
      value: 6
      objectReference: {fileID: 0}
    - target: {fileID: 5956172336509982321, guid: 36ff76a9e7929f342915274725573e00,
        type: 3}
      propertyPath: OnClick.m_PersistentCalls.m_Calls.Array.data[3].m_Mode
      value: 6
      objectReference: {fileID: 0}
    - target: {fileID: 5956172336509982321, guid: 36ff76a9e7929f342915274725573e00,
        type: 3}
      propertyPath: OnClick.m_PersistentCalls.m_Calls.Array.data[0].m_Target
      value: 
      objectReference: {fileID: 381596676}
    - target: {fileID: 5956172336509982321, guid: 36ff76a9e7929f342915274725573e00,
        type: 3}
      propertyPath: OnClick.m_PersistentCalls.m_Calls.Array.data[1].m_Target
      value: 
      objectReference: {fileID: 1734862429}
    - target: {fileID: 5956172336509982321, guid: 36ff76a9e7929f342915274725573e00,
        type: 3}
      propertyPath: OnClick.m_PersistentCalls.m_Calls.Array.data[2].m_Target
      value: 
      objectReference: {fileID: 1102851793}
    - target: {fileID: 5956172336509982321, guid: 36ff76a9e7929f342915274725573e00,
        type: 3}
      propertyPath: OnClick.m_PersistentCalls.m_Calls.Array.data[3].m_Target
      value: 
      objectReference: {fileID: 159991640}
    - target: {fileID: 5956172336509982321, guid: 36ff76a9e7929f342915274725573e00,
        type: 3}
      propertyPath: OnClick.m_PersistentCalls.m_Calls.Array.data[1].m_CallState
      value: 2
      objectReference: {fileID: 0}
    - target: {fileID: 5956172336509982321, guid: 36ff76a9e7929f342915274725573e00,
        type: 3}
      propertyPath: OnClick.m_PersistentCalls.m_Calls.Array.data[2].m_CallState
      value: 2
      objectReference: {fileID: 0}
    - target: {fileID: 5956172336509982321, guid: 36ff76a9e7929f342915274725573e00,
        type: 3}
      propertyPath: OnClick.m_PersistentCalls.m_Calls.Array.data[3].m_CallState
      value: 2
      objectReference: {fileID: 0}
    - target: {fileID: 5956172336509982321, guid: 36ff76a9e7929f342915274725573e00,
        type: 3}
      propertyPath: OnClick.m_PersistentCalls.m_Calls.Array.data[0].m_MethodName
      value: SummonColorPicker
      objectReference: {fileID: 0}
    - target: {fileID: 5956172336509982321, guid: 36ff76a9e7929f342915274725573e00,
        type: 3}
      propertyPath: OnClick.m_PersistentCalls.m_Calls.Array.data[1].m_MethodName
      value: SetActive
      objectReference: {fileID: 0}
    - target: {fileID: 5956172336509982321, guid: 36ff76a9e7929f342915274725573e00,
        type: 3}
      propertyPath: OnClick.m_PersistentCalls.m_Calls.Array.data[2].m_MethodName
      value: SetActive
      objectReference: {fileID: 0}
    - target: {fileID: 5956172336509982321, guid: 36ff76a9e7929f342915274725573e00,
        type: 3}
      propertyPath: OnClick.m_PersistentCalls.m_Calls.Array.data[3].m_MethodName
      value: SetActive
      objectReference: {fileID: 0}
    - target: {fileID: 5956172336509982321, guid: 36ff76a9e7929f342915274725573e00,
        type: 3}
      propertyPath: OnClick.m_PersistentCalls.m_Calls.Array.data[2].m_Arguments.m_BoolArgument
      value: 1
      objectReference: {fileID: 0}
    - target: {fileID: 5956172336509982321, guid: 36ff76a9e7929f342915274725573e00,
        type: 3}
      propertyPath: OnClick.m_PersistentCalls.m_Calls.Array.data[3].m_Arguments.m_BoolArgument
      value: 0
      objectReference: {fileID: 0}
    - target: {fileID: 5956172336509982321, guid: 36ff76a9e7929f342915274725573e00,
        type: 3}
      propertyPath: OnClick.m_PersistentCalls.m_Calls.Array.data[0].m_Arguments.m_ObjectArgument
      value: 
      objectReference: {fileID: 723593861}
    - target: {fileID: 5956172336509982321, guid: 36ff76a9e7929f342915274725573e00,
        type: 3}
      propertyPath: OnClick.m_PersistentCalls.m_Calls.Array.data[0].m_Arguments.m_ObjectArgumentAssemblyTypeName
      value: UnityEngine.GameObject, UnityEngine
      objectReference: {fileID: 0}
    - target: {fileID: 5956172336509982321, guid: 36ff76a9e7929f342915274725573e00,
        type: 3}
      propertyPath: OnClick.m_PersistentCalls.m_Calls.Array.data[1].m_Arguments.m_ObjectArgumentAssemblyTypeName
      value: UnityEngine.Object, UnityEngine
      objectReference: {fileID: 0}
    - target: {fileID: 5956172336509982321, guid: 36ff76a9e7929f342915274725573e00,
        type: 3}
      propertyPath: OnClick.m_PersistentCalls.m_Calls.Array.data[2].m_Arguments.m_ObjectArgumentAssemblyTypeName
      value: UnityEngine.Object, UnityEngine
      objectReference: {fileID: 0}
    - target: {fileID: 5956172336509982321, guid: 36ff76a9e7929f342915274725573e00,
        type: 3}
      propertyPath: OnClick.m_PersistentCalls.m_Calls.Array.data[3].m_Arguments.m_ObjectArgumentAssemblyTypeName
      value: UnityEngine.Object, UnityEngine
      objectReference: {fileID: 0}
    - target: {fileID: 6906603868331807467, guid: 36ff76a9e7929f342915274725573e00,
        type: 3}
      propertyPath: iconStyle
      value: 3
      objectReference: {fileID: 0}
    m_RemovedComponents: []
  m_SourcePrefab: {fileID: 100100000, guid: 36ff76a9e7929f342915274725573e00, type: 3}
--- !u!4 &1665354954 stripped
Transform:
  m_CorrespondingSourceObject: {fileID: 3885370232023760435, guid: 36ff76a9e7929f342915274725573e00,
    type: 3}
  m_PrefabInstance: {fileID: 1665354953}
  m_PrefabAsset: {fileID: 0}
--- !u!1001 &1672675963
PrefabInstance:
  m_ObjectHideFlags: 0
  serializedVersion: 2
  m_Modification:
    m_TransformParent: {fileID: 1382463660}
    m_Modifications:
    - target: {fileID: 4776066136358859, guid: 18470d71939382448be2ecd06efa9662, type: 3}
      propertyPath: m_text
      value: Color Picker Example
      objectReference: {fileID: 0}
    - target: {fileID: 4776066136358859, guid: 18470d71939382448be2ecd06efa9662, type: 3}
      propertyPath: m_fontSize
      value: 42
      objectReference: {fileID: 0}
    - target: {fileID: 4776066136358859, guid: 18470d71939382448be2ecd06efa9662, type: 3}
      propertyPath: m_fontAsset
      value: 
      objectReference: {fileID: 11400000, guid: f137eba12ee10834cb19632437cfdb2e,
        type: 2}
    - target: {fileID: 4776066136358859, guid: 18470d71939382448be2ecd06efa9662, type: 3}
      propertyPath: m_fontSizeBase
      value: 42
      objectReference: {fileID: 0}
    - target: {fileID: 4776066136358859, guid: 18470d71939382448be2ecd06efa9662, type: 3}
      propertyPath: m_sharedMaterial
      value: 
      objectReference: {fileID: 21433621844796372, guid: f137eba12ee10834cb19632437cfdb2e,
        type: 2}
    - target: {fileID: 4776066136358859, guid: 18470d71939382448be2ecd06efa9662, type: 3}
      propertyPath: m_textInfo.lineCount
      value: 1
      objectReference: {fileID: 0}
    - target: {fileID: 4776066136358859, guid: 18470d71939382448be2ecd06efa9662, type: 3}
      propertyPath: m_textInfo.pageCount
      value: 1
      objectReference: {fileID: 0}
    - target: {fileID: 4776066136358859, guid: 18470d71939382448be2ecd06efa9662, type: 3}
      propertyPath: m_textInfo.wordCount
      value: 3
      objectReference: {fileID: 0}
    - target: {fileID: 4776066136358859, guid: 18470d71939382448be2ecd06efa9662, type: 3}
      propertyPath: m_textInfo.spaceCount
      value: 2
      objectReference: {fileID: 0}
    - target: {fileID: 4776066136358859, guid: 18470d71939382448be2ecd06efa9662, type: 3}
      propertyPath: m_textInfo.characterCount
      value: 20
      objectReference: {fileID: 0}
    - target: {fileID: 1600130203466990489, guid: 18470d71939382448be2ecd06efa9662,
        type: 3}
      propertyPath: m_IsActive
      value: 1
      objectReference: {fileID: 0}
    - target: {fileID: 1641405841635922537, guid: 18470d71939382448be2ecd06efa9662,
        type: 3}
      propertyPath: m_textInfo.lineCount
      value: 0
      objectReference: {fileID: 0}
    - target: {fileID: 1641405841635922537, guid: 18470d71939382448be2ecd06efa9662,
        type: 3}
      propertyPath: m_textInfo.pageCount
      value: 0
      objectReference: {fileID: 0}
    - target: {fileID: 1641405841635922537, guid: 18470d71939382448be2ecd06efa9662,
        type: 3}
      propertyPath: m_textInfo.wordCount
      value: 0
      objectReference: {fileID: 0}
    - target: {fileID: 1641405841635922537, guid: 18470d71939382448be2ecd06efa9662,
        type: 3}
      propertyPath: m_textInfo.spaceCount
      value: 0
      objectReference: {fileID: 0}
    - target: {fileID: 1641405841635922537, guid: 18470d71939382448be2ecd06efa9662,
        type: 3}
      propertyPath: m_textInfo.characterCount
      value: 0
      objectReference: {fileID: 0}
    - target: {fileID: 1685343061998419463, guid: 18470d71939382448be2ecd06efa9662,
        type: 3}
      propertyPath: m_AnchorMax.y
      value: 0
      objectReference: {fileID: 0}
    - target: {fileID: 1685343061998419463, guid: 18470d71939382448be2ecd06efa9662,
        type: 3}
      propertyPath: m_AnchorMin.y
      value: 0
      objectReference: {fileID: 0}
    - target: {fileID: 1685343061998419463, guid: 18470d71939382448be2ecd06efa9662,
        type: 3}
      propertyPath: m_SizeDelta.x
      value: 0
      objectReference: {fileID: 0}
    - target: {fileID: 1685343061998419463, guid: 18470d71939382448be2ecd06efa9662,
        type: 3}
      propertyPath: m_AnchoredPosition.x
      value: 0
      objectReference: {fileID: 0}
    - target: {fileID: 1685343061998419463, guid: 18470d71939382448be2ecd06efa9662,
        type: 3}
      propertyPath: m_AnchoredPosition.y
      value: 0
      objectReference: {fileID: 0}
    - target: {fileID: 2113875699234556495, guid: 18470d71939382448be2ecd06efa9662,
        type: 3}
      propertyPath: m_text
      value: '<size=42><b>Color Picker Example</b></size>


        This example
        scene demonstrates several different ways to interact with a color picker
        that changes color values of various materials at runtime.'
      objectReference: {fileID: 0}
    - target: {fileID: 2113875699234556495, guid: 18470d71939382448be2ecd06efa9662,
        type: 3}
      propertyPath: m_textInfo.lineCount
      value: 5
      objectReference: {fileID: 0}
    - target: {fileID: 2113875699234556495, guid: 18470d71939382448be2ecd06efa9662,
        type: 3}
      propertyPath: m_textInfo.pageCount
      value: 1
      objectReference: {fileID: 0}
    - target: {fileID: 2113875699234556495, guid: 18470d71939382448be2ecd06efa9662,
        type: 3}
      propertyPath: m_textInfo.wordCount
      value: 25
      objectReference: {fileID: 0}
    - target: {fileID: 2113875699234556495, guid: 18470d71939382448be2ecd06efa9662,
        type: 3}
      propertyPath: m_textInfo.spaceCount
      value: 25
      objectReference: {fileID: 0}
    - target: {fileID: 2113875699234556495, guid: 18470d71939382448be2ecd06efa9662,
        type: 3}
      propertyPath: m_textInfo.characterCount
      value: 168
      objectReference: {fileID: 0}
    - target: {fileID: 2113875699234556495, guid: 18470d71939382448be2ecd06efa9662,
        type: 3}
      propertyPath: m_firstOverflowCharacterIndex
      value: 139
      objectReference: {fileID: 0}
    - target: {fileID: 2652140712778390387, guid: 18470d71939382448be2ecd06efa9662,
        type: 3}
      propertyPath: m_LocalScale.y
      value: 0.34820294
      objectReference: {fileID: 0}
    - target: {fileID: 2652140712778390387, guid: 18470d71939382448be2ecd06efa9662,
        type: 3}
      propertyPath: m_LocalPosition.y
      value: -0.1092
      objectReference: {fileID: 0}
    - target: {fileID: 3378234012929652230, guid: 18470d71939382448be2ecd06efa9662,
        type: 3}
      propertyPath: m_SizeDelta.y
      value: 0
      objectReference: {fileID: 0}
    - target: {fileID: 3739545933202976518, guid: 18470d71939382448be2ecd06efa9662,
        type: 3}
      propertyPath: hostTransform
      value: 
      objectReference: {fileID: 1382463660}
    - target: {fileID: 5245681700994389642, guid: 18470d71939382448be2ecd06efa9662,
        type: 3}
      propertyPath: m_Mesh
      value: 
      objectReference: {fileID: 0}
    - target: {fileID: 6520512445149134010, guid: 18470d71939382448be2ecd06efa9662,
        type: 3}
      propertyPath: m_AnchorMax.y
      value: 0
      objectReference: {fileID: 0}
    - target: {fileID: 6520512445149134010, guid: 18470d71939382448be2ecd06efa9662,
        type: 3}
      propertyPath: m_AnchorMin.y
      value: 0
      objectReference: {fileID: 0}
    - target: {fileID: 6520512445149134010, guid: 18470d71939382448be2ecd06efa9662,
        type: 3}
      propertyPath: m_SizeDelta.x
      value: 0
      objectReference: {fileID: 0}
    - target: {fileID: 6520512445149134010, guid: 18470d71939382448be2ecd06efa9662,
        type: 3}
      propertyPath: m_AnchoredPosition.y
      value: 0
      objectReference: {fileID: 0}
    - target: {fileID: 6636591464266677543, guid: 18470d71939382448be2ecd06efa9662,
        type: 3}
      propertyPath: m_AnchorMax.y
      value: 0
      objectReference: {fileID: 0}
    - target: {fileID: 6636591464266677543, guid: 18470d71939382448be2ecd06efa9662,
        type: 3}
      propertyPath: m_AnchorMin.y
      value: 0
      objectReference: {fileID: 0}
    - target: {fileID: 6636591464266677543, guid: 18470d71939382448be2ecd06efa9662,
        type: 3}
      propertyPath: m_SizeDelta.x
      value: 0
      objectReference: {fileID: 0}
    - target: {fileID: 6636591464266677543, guid: 18470d71939382448be2ecd06efa9662,
        type: 3}
      propertyPath: m_SizeDelta.y
      value: 0
      objectReference: {fileID: 0}
    - target: {fileID: 6636591464266677543, guid: 18470d71939382448be2ecd06efa9662,
        type: 3}
      propertyPath: m_AnchoredPosition.y
      value: 0
      objectReference: {fileID: 0}
    - target: {fileID: 7222516727875101447, guid: 18470d71939382448be2ecd06efa9662,
        type: 3}
      propertyPath: m_AnchorMax.y
      value: 0
      objectReference: {fileID: 0}
    - target: {fileID: 7222516727875101447, guid: 18470d71939382448be2ecd06efa9662,
        type: 3}
      propertyPath: m_AnchorMin.y
      value: 0
      objectReference: {fileID: 0}
    - target: {fileID: 7222516727875101447, guid: 18470d71939382448be2ecd06efa9662,
        type: 3}
      propertyPath: m_SizeDelta.x
      value: 0
      objectReference: {fileID: 0}
    - target: {fileID: 7222516727875101447, guid: 18470d71939382448be2ecd06efa9662,
        type: 3}
      propertyPath: m_AnchoredPosition.x
      value: 0
      objectReference: {fileID: 0}
    - target: {fileID: 7222516727875101447, guid: 18470d71939382448be2ecd06efa9662,
        type: 3}
      propertyPath: m_AnchoredPosition.y
      value: 0
      objectReference: {fileID: 0}
    - target: {fileID: 7614231224962994365, guid: 18470d71939382448be2ecd06efa9662,
        type: 3}
      propertyPath: m_Mesh
      value: 
      objectReference: {fileID: 0}
    - target: {fileID: 7614231224962994371, guid: 18470d71939382448be2ecd06efa9662,
        type: 3}
      propertyPath: m_textInfo.lineCount
      value: 0
      objectReference: {fileID: 0}
    - target: {fileID: 7614231224962994371, guid: 18470d71939382448be2ecd06efa9662,
        type: 3}
      propertyPath: m_textInfo.pageCount
      value: 0
      objectReference: {fileID: 0}
    - target: {fileID: 7614231224962994371, guid: 18470d71939382448be2ecd06efa9662,
        type: 3}
      propertyPath: m_textInfo.wordCount
      value: 0
      objectReference: {fileID: 0}
    - target: {fileID: 7614231224962994371, guid: 18470d71939382448be2ecd06efa9662,
        type: 3}
      propertyPath: m_textInfo.characterCount
      value: 0
      objectReference: {fileID: 0}
    - target: {fileID: 7614231225992287546, guid: 18470d71939382448be2ecd06efa9662,
        type: 3}
      propertyPath: m_Name
      value: SceneDescriptionPanelRev (1)
      objectReference: {fileID: 0}
    - target: {fileID: 7614231225992287547, guid: 18470d71939382448be2ecd06efa9662,
        type: 3}
      propertyPath: m_RootOrder
      value: 5
      objectReference: {fileID: 0}
    - target: {fileID: 7614231225992287547, guid: 18470d71939382448be2ecd06efa9662,
        type: 3}
      propertyPath: m_LocalPosition.x
      value: 0.712
      objectReference: {fileID: 0}
    - target: {fileID: 7614231225992287547, guid: 18470d71939382448be2ecd06efa9662,
        type: 3}
      propertyPath: m_LocalPosition.y
      value: 0.063
      objectReference: {fileID: 0}
    - target: {fileID: 7614231225992287547, guid: 18470d71939382448be2ecd06efa9662,
        type: 3}
      propertyPath: m_LocalPosition.z
      value: -0.312
      objectReference: {fileID: 0}
    - target: {fileID: 7614231225992287547, guid: 18470d71939382448be2ecd06efa9662,
        type: 3}
      propertyPath: m_LocalRotation.w
      value: 0.953717
      objectReference: {fileID: 0}
    - target: {fileID: 7614231225992287547, guid: 18470d71939382448be2ecd06efa9662,
        type: 3}
      propertyPath: m_LocalRotation.x
      value: 0
      objectReference: {fileID: 0}
    - target: {fileID: 7614231225992287547, guid: 18470d71939382448be2ecd06efa9662,
        type: 3}
      propertyPath: m_LocalRotation.y
      value: 0.30070576
      objectReference: {fileID: 0}
    - target: {fileID: 7614231225992287547, guid: 18470d71939382448be2ecd06efa9662,
        type: 3}
      propertyPath: m_LocalRotation.z
      value: 0
      objectReference: {fileID: 0}
    - target: {fileID: 7614231225992287547, guid: 18470d71939382448be2ecd06efa9662,
        type: 3}
      propertyPath: m_LocalEulerAnglesHint.x
      value: 0
      objectReference: {fileID: 0}
    - target: {fileID: 7614231225992287547, guid: 18470d71939382448be2ecd06efa9662,
        type: 3}
      propertyPath: m_LocalEulerAnglesHint.y
      value: 35
      objectReference: {fileID: 0}
    - target: {fileID: 7614231225992287547, guid: 18470d71939382448be2ecd06efa9662,
        type: 3}
      propertyPath: m_LocalEulerAnglesHint.z
      value: 0
      objectReference: {fileID: 0}
    - target: {fileID: 7614231226555770154, guid: 18470d71939382448be2ecd06efa9662,
        type: 3}
      propertyPath: m_Mesh
      value: 
      objectReference: {fileID: 0}
    - target: {fileID: 7614231226555770156, guid: 18470d71939382448be2ecd06efa9662,
        type: 3}
      propertyPath: m_textInfo.lineCount
      value: 0
      objectReference: {fileID: 0}
    - target: {fileID: 7614231226555770156, guid: 18470d71939382448be2ecd06efa9662,
        type: 3}
      propertyPath: m_textInfo.pageCount
      value: 0
      objectReference: {fileID: 0}
    - target: {fileID: 7614231226555770156, guid: 18470d71939382448be2ecd06efa9662,
        type: 3}
      propertyPath: m_textInfo.wordCount
      value: 0
      objectReference: {fileID: 0}
    - target: {fileID: 7614231226555770156, guid: 18470d71939382448be2ecd06efa9662,
        type: 3}
      propertyPath: m_textInfo.spaceCount
      value: 0
      objectReference: {fileID: 0}
    - target: {fileID: 7614231226555770156, guid: 18470d71939382448be2ecd06efa9662,
        type: 3}
      propertyPath: m_textInfo.characterCount
      value: 0
      objectReference: {fileID: 0}
    - target: {fileID: 8239495094510916357, guid: 18470d71939382448be2ecd06efa9662,
        type: 3}
      propertyPath: m_AnchorMax.y
      value: 0
      objectReference: {fileID: 0}
    - target: {fileID: 8239495094510916357, guid: 18470d71939382448be2ecd06efa9662,
        type: 3}
      propertyPath: m_AnchorMin.y
      value: 0
      objectReference: {fileID: 0}
    - target: {fileID: 8239495094510916357, guid: 18470d71939382448be2ecd06efa9662,
        type: 3}
      propertyPath: m_AnchoredPosition.x
      value: 0
      objectReference: {fileID: 0}
    - target: {fileID: 8239495094510916357, guid: 18470d71939382448be2ecd06efa9662,
        type: 3}
      propertyPath: m_AnchoredPosition.y
      value: 0
      objectReference: {fileID: 0}
    m_RemovedComponents: []
  m_SourcePrefab: {fileID: 100100000, guid: 18470d71939382448be2ecd06efa9662, type: 3}
--- !u!4 &1672675964 stripped
Transform:
  m_CorrespondingSourceObject: {fileID: 7614231225992287547, guid: 18470d71939382448be2ecd06efa9662,
    type: 3}
  m_PrefabInstance: {fileID: 1672675963}
  m_PrefabAsset: {fileID: 0}
--- !u!1 &1734862429 stripped
GameObject:
  m_CorrespondingSourceObject: {fileID: 3885370230430447826, guid: 36ff76a9e7929f342915274725573e00,
    type: 3}
  m_PrefabInstance: {fileID: 1665354953}
  m_PrefabAsset: {fileID: 0}
--- !u!1 &1796589983
GameObject:
  m_ObjectHideFlags: 0
  m_CorrespondingSourceObject: {fileID: 0}
  m_PrefabInstance: {fileID: 0}
  m_PrefabAsset: {fileID: 0}
  serializedVersion: 6
  m_Component:
  - component: {fileID: 1796589984}
  m_Layer: 0
  m_Name: Anchor
  m_TagString: Untagged
  m_Icon: {fileID: 0}
  m_NavMeshLayer: 0
  m_StaticEditorFlags: 0
  m_IsActive: 1
--- !u!4 &1796589984
Transform:
  m_ObjectHideFlags: 0
  m_CorrespondingSourceObject: {fileID: 0}
  m_PrefabInstance: {fileID: 0}
  m_PrefabAsset: {fileID: 0}
  m_GameObject: {fileID: 1796589983}
  m_LocalRotation: {x: 0, y: 0, z: 0, w: 1}
  m_LocalPosition: {x: 0, y: -0.189, z: -0.112}
  m_LocalScale: {x: 1, y: 1, z: 1}
  m_Children: []
  m_Father: {fileID: 904212061}
  m_RootOrder: 2
  m_LocalEulerAnglesHint: {x: 0, y: 0, z: 0}
--- !u!1001 &1844810867
PrefabInstance:
  m_ObjectHideFlags: 0
  serializedVersion: 2
  m_Modification:
    m_TransformParent: {fileID: 904212061}
    m_Modifications:
    - target: {fileID: 1480790238652100459, guid: 36ff76a9e7929f342915274725573e00,
        type: 3}
      propertyPath: m_Mesh
      value: 
      objectReference: {fileID: 0}
    - target: {fileID: 3885370230430447826, guid: 36ff76a9e7929f342915274725573e00,
        type: 3}
      propertyPath: m_Name
      value: PressableButtonHoloLens2_48x48
      objectReference: {fileID: 0}
    - target: {fileID: 3885370230883199266, guid: 36ff76a9e7929f342915274725573e00,
        type: 3}
      propertyPath: m_text
      value: Color
      objectReference: {fileID: 0}
    - target: {fileID: 3885370230883199266, guid: 36ff76a9e7929f342915274725573e00,
        type: 3}
      propertyPath: m_textInfo.characterCount
      value: 5
      objectReference: {fileID: 0}
    - target: {fileID: 3885370230883199324, guid: 36ff76a9e7929f342915274725573e00,
        type: 3}
      propertyPath: m_Mesh
      value: 
      objectReference: {fileID: 0}
    - target: {fileID: 3885370232023760435, guid: 36ff76a9e7929f342915274725573e00,
        type: 3}
      propertyPath: m_RootOrder
      value: 3
      objectReference: {fileID: 0}
    - target: {fileID: 3885370232023760435, guid: 36ff76a9e7929f342915274725573e00,
        type: 3}
      propertyPath: m_LocalPosition.x
      value: 0
      objectReference: {fileID: 0}
    - target: {fileID: 3885370232023760435, guid: 36ff76a9e7929f342915274725573e00,
        type: 3}
      propertyPath: m_LocalPosition.y
      value: -0.064
      objectReference: {fileID: 0}
    - target: {fileID: 3885370232023760435, guid: 36ff76a9e7929f342915274725573e00,
        type: 3}
      propertyPath: m_LocalPosition.z
      value: -0.103000045
      objectReference: {fileID: 0}
    - target: {fileID: 3885370232023760435, guid: 36ff76a9e7929f342915274725573e00,
        type: 3}
      propertyPath: m_LocalRotation.w
      value: 1
      objectReference: {fileID: 0}
    - target: {fileID: 3885370232023760435, guid: 36ff76a9e7929f342915274725573e00,
        type: 3}
      propertyPath: m_LocalRotation.x
      value: -0
      objectReference: {fileID: 0}
    - target: {fileID: 3885370232023760435, guid: 36ff76a9e7929f342915274725573e00,
        type: 3}
      propertyPath: m_LocalRotation.y
      value: -0
      objectReference: {fileID: 0}
    - target: {fileID: 3885370232023760435, guid: 36ff76a9e7929f342915274725573e00,
        type: 3}
      propertyPath: m_LocalRotation.z
      value: -0
      objectReference: {fileID: 0}
    - target: {fileID: 3885370232023760435, guid: 36ff76a9e7929f342915274725573e00,
        type: 3}
      propertyPath: m_LocalEulerAnglesHint.x
      value: 0
      objectReference: {fileID: 0}
    - target: {fileID: 3885370232023760435, guid: 36ff76a9e7929f342915274725573e00,
        type: 3}
      propertyPath: m_LocalEulerAnglesHint.y
      value: 0
      objectReference: {fileID: 0}
    - target: {fileID: 3885370232023760435, guid: 36ff76a9e7929f342915274725573e00,
        type: 3}
      propertyPath: m_LocalEulerAnglesHint.z
      value: 0
      objectReference: {fileID: 0}
    - target: {fileID: 3885370232058647678, guid: 36ff76a9e7929f342915274725573e00,
        type: 3}
      propertyPath: m_IsActive
      value: 0
      objectReference: {fileID: 0}
    - target: {fileID: 5370477392995625864, guid: 36ff76a9e7929f342915274725573e00,
        type: 3}
      propertyPath: m_text
      value: Say "Color"
      objectReference: {fileID: 0}
    - target: {fileID: 5370477392995625864, guid: 36ff76a9e7929f342915274725573e00,
        type: 3}
      propertyPath: m_textInfo.characterCount
      value: 11
      objectReference: {fileID: 0}
    - target: {fileID: 5956172336509982321, guid: 36ff76a9e7929f342915274725573e00,
        type: 3}
      propertyPath: OnClick.m_PersistentCalls.m_Calls.Array.size
      value: 1
      objectReference: {fileID: 0}
    - target: {fileID: 5956172336509982321, guid: 36ff76a9e7929f342915274725573e00,
        type: 3}
      propertyPath: OnClick.m_PersistentCalls.m_Calls.Array.data[0].m_Mode
      value: 2
      objectReference: {fileID: 0}
    - target: {fileID: 5956172336509982321, guid: 36ff76a9e7929f342915274725573e00,
        type: 3}
      propertyPath: OnClick.m_PersistentCalls.m_Calls.Array.data[1].m_Mode
      value: 6
      objectReference: {fileID: 0}
    - target: {fileID: 5956172336509982321, guid: 36ff76a9e7929f342915274725573e00,
        type: 3}
      propertyPath: OnClick.m_PersistentCalls.m_Calls.Array.data[2].m_Mode
      value: 6
      objectReference: {fileID: 0}
    - target: {fileID: 5956172336509982321, guid: 36ff76a9e7929f342915274725573e00,
        type: 3}
      propertyPath: OnClick.m_PersistentCalls.m_Calls.Array.data[3].m_Mode
      value: 6
      objectReference: {fileID: 0}
    - target: {fileID: 5956172336509982321, guid: 36ff76a9e7929f342915274725573e00,
        type: 3}
      propertyPath: OnClick.m_PersistentCalls.m_Calls.Array.data[0].m_Target
      value: 
      objectReference: {fileID: 381596676}
    - target: {fileID: 5956172336509982321, guid: 36ff76a9e7929f342915274725573e00,
        type: 3}
      propertyPath: OnClick.m_PersistentCalls.m_Calls.Array.data[1].m_Target
      value: 
      objectReference: {fileID: 1734862429}
    - target: {fileID: 5956172336509982321, guid: 36ff76a9e7929f342915274725573e00,
        type: 3}
      propertyPath: OnClick.m_PersistentCalls.m_Calls.Array.data[2].m_Target
      value: 
      objectReference: {fileID: 1102851793}
    - target: {fileID: 5956172336509982321, guid: 36ff76a9e7929f342915274725573e00,
        type: 3}
      propertyPath: OnClick.m_PersistentCalls.m_Calls.Array.data[3].m_Target
      value: 
      objectReference: {fileID: 159991640}
    - target: {fileID: 5956172336509982321, guid: 36ff76a9e7929f342915274725573e00,
        type: 3}
      propertyPath: OnClick.m_PersistentCalls.m_Calls.Array.data[1].m_CallState
      value: 2
      objectReference: {fileID: 0}
    - target: {fileID: 5956172336509982321, guid: 36ff76a9e7929f342915274725573e00,
        type: 3}
      propertyPath: OnClick.m_PersistentCalls.m_Calls.Array.data[2].m_CallState
      value: 2
      objectReference: {fileID: 0}
    - target: {fileID: 5956172336509982321, guid: 36ff76a9e7929f342915274725573e00,
        type: 3}
      propertyPath: OnClick.m_PersistentCalls.m_Calls.Array.data[3].m_CallState
      value: 2
      objectReference: {fileID: 0}
    - target: {fileID: 5956172336509982321, guid: 36ff76a9e7929f342915274725573e00,
        type: 3}
      propertyPath: OnClick.m_PersistentCalls.m_Calls.Array.data[0].m_MethodName
      value: SummonColorPicker
      objectReference: {fileID: 0}
    - target: {fileID: 5956172336509982321, guid: 36ff76a9e7929f342915274725573e00,
        type: 3}
      propertyPath: OnClick.m_PersistentCalls.m_Calls.Array.data[1].m_MethodName
      value: SetActive
      objectReference: {fileID: 0}
    - target: {fileID: 5956172336509982321, guid: 36ff76a9e7929f342915274725573e00,
        type: 3}
      propertyPath: OnClick.m_PersistentCalls.m_Calls.Array.data[2].m_MethodName
      value: SetActive
      objectReference: {fileID: 0}
    - target: {fileID: 5956172336509982321, guid: 36ff76a9e7929f342915274725573e00,
        type: 3}
      propertyPath: OnClick.m_PersistentCalls.m_Calls.Array.data[3].m_MethodName
      value: SetActive
      objectReference: {fileID: 0}
    - target: {fileID: 5956172336509982321, guid: 36ff76a9e7929f342915274725573e00,
        type: 3}
      propertyPath: OnClick.m_PersistentCalls.m_Calls.Array.data[1].m_Arguments.m_BoolArgument
      value: 1
      objectReference: {fileID: 0}
    - target: {fileID: 5956172336509982321, guid: 36ff76a9e7929f342915274725573e00,
        type: 3}
      propertyPath: OnClick.m_PersistentCalls.m_Calls.Array.data[3].m_Arguments.m_BoolArgument
      value: 0
      objectReference: {fileID: 0}
    - target: {fileID: 5956172336509982321, guid: 36ff76a9e7929f342915274725573e00,
        type: 3}
      propertyPath: OnClick.m_PersistentCalls.m_Calls.Array.data[0].m_Arguments.m_ObjectArgument
      value: 
      objectReference: {fileID: 904212060}
    - target: {fileID: 5956172336509982321, guid: 36ff76a9e7929f342915274725573e00,
        type: 3}
      propertyPath: OnClick.m_PersistentCalls.m_Calls.Array.data[0].m_Arguments.m_ObjectArgumentAssemblyTypeName
      value: UnityEngine.GameObject, UnityEngine
      objectReference: {fileID: 0}
    - target: {fileID: 5956172336509982321, guid: 36ff76a9e7929f342915274725573e00,
        type: 3}
      propertyPath: OnClick.m_PersistentCalls.m_Calls.Array.data[1].m_Arguments.m_ObjectArgumentAssemblyTypeName
      value: UnityEngine.Object, UnityEngine
      objectReference: {fileID: 0}
    - target: {fileID: 5956172336509982321, guid: 36ff76a9e7929f342915274725573e00,
        type: 3}
      propertyPath: OnClick.m_PersistentCalls.m_Calls.Array.data[2].m_Arguments.m_ObjectArgumentAssemblyTypeName
      value: UnityEngine.Object, UnityEngine
      objectReference: {fileID: 0}
    - target: {fileID: 5956172336509982321, guid: 36ff76a9e7929f342915274725573e00,
        type: 3}
      propertyPath: OnClick.m_PersistentCalls.m_Calls.Array.data[3].m_Arguments.m_ObjectArgumentAssemblyTypeName
      value: UnityEngine.Object, UnityEngine
      objectReference: {fileID: 0}
    - target: {fileID: 6906603868331807467, guid: 36ff76a9e7929f342915274725573e00,
        type: 3}
      propertyPath: iconStyle
      value: 3
      objectReference: {fileID: 0}
    m_RemovedComponents: []
  m_SourcePrefab: {fileID: 100100000, guid: 36ff76a9e7929f342915274725573e00, type: 3}
--- !u!4 &1844810868 stripped
Transform:
  m_CorrespondingSourceObject: {fileID: 3885370232023760435, guid: 36ff76a9e7929f342915274725573e00,
    type: 3}
  m_PrefabInstance: {fileID: 1844810867}
  m_PrefabAsset: {fileID: 0}
--- !u!1001 &1851272783
PrefabInstance:
  m_ObjectHideFlags: 0
  serializedVersion: 2
  m_Modification:
    m_TransformParent: {fileID: 1927950888}
    m_Modifications:
    - target: {fileID: 1480790238652100459, guid: 36ff76a9e7929f342915274725573e00,
        type: 3}
      propertyPath: m_Mesh
      value: 
      objectReference: {fileID: 0}
    - target: {fileID: 3885370230430447826, guid: 36ff76a9e7929f342915274725573e00,
        type: 3}
      propertyPath: m_Name
      value: PressableButtonHoloLens2_48x48
      objectReference: {fileID: 0}
    - target: {fileID: 3885370230883199266, guid: 36ff76a9e7929f342915274725573e00,
        type: 3}
      propertyPath: m_text
      value: Color
      objectReference: {fileID: 0}
    - target: {fileID: 3885370230883199266, guid: 36ff76a9e7929f342915274725573e00,
        type: 3}
      propertyPath: m_textInfo.spaceCount
      value: 1
      objectReference: {fileID: 0}
    - target: {fileID: 3885370230883199266, guid: 36ff76a9e7929f342915274725573e00,
        type: 3}
      propertyPath: m_textInfo.characterCount
      value: 5
      objectReference: {fileID: 0}
    - target: {fileID: 3885370230883199324, guid: 36ff76a9e7929f342915274725573e00,
        type: 3}
      propertyPath: m_Mesh
      value: 
      objectReference: {fileID: 0}
    - target: {fileID: 3885370232023760435, guid: 36ff76a9e7929f342915274725573e00,
        type: 3}
      propertyPath: m_RootOrder
      value: 3
      objectReference: {fileID: 0}
    - target: {fileID: 3885370232023760435, guid: 36ff76a9e7929f342915274725573e00,
        type: 3}
      propertyPath: m_LocalPosition.x
      value: 0
      objectReference: {fileID: 0}
    - target: {fileID: 3885370232023760435, guid: 36ff76a9e7929f342915274725573e00,
        type: 3}
      propertyPath: m_LocalPosition.y
      value: -0.064
      objectReference: {fileID: 0}
    - target: {fileID: 3885370232023760435, guid: 36ff76a9e7929f342915274725573e00,
        type: 3}
      propertyPath: m_LocalPosition.z
      value: -0.103000045
      objectReference: {fileID: 0}
    - target: {fileID: 3885370232023760435, guid: 36ff76a9e7929f342915274725573e00,
        type: 3}
      propertyPath: m_LocalRotation.w
      value: 1
      objectReference: {fileID: 0}
    - target: {fileID: 3885370232023760435, guid: 36ff76a9e7929f342915274725573e00,
        type: 3}
      propertyPath: m_LocalRotation.x
      value: -0
      objectReference: {fileID: 0}
    - target: {fileID: 3885370232023760435, guid: 36ff76a9e7929f342915274725573e00,
        type: 3}
      propertyPath: m_LocalRotation.y
      value: -0
      objectReference: {fileID: 0}
    - target: {fileID: 3885370232023760435, guid: 36ff76a9e7929f342915274725573e00,
        type: 3}
      propertyPath: m_LocalRotation.z
      value: -0
      objectReference: {fileID: 0}
    - target: {fileID: 3885370232023760435, guid: 36ff76a9e7929f342915274725573e00,
        type: 3}
      propertyPath: m_LocalEulerAnglesHint.x
      value: 0
      objectReference: {fileID: 0}
    - target: {fileID: 3885370232023760435, guid: 36ff76a9e7929f342915274725573e00,
        type: 3}
      propertyPath: m_LocalEulerAnglesHint.y
      value: 0
      objectReference: {fileID: 0}
    - target: {fileID: 3885370232023760435, guid: 36ff76a9e7929f342915274725573e00,
        type: 3}
      propertyPath: m_LocalEulerAnglesHint.z
      value: 0
      objectReference: {fileID: 0}
    - target: {fileID: 3885370232058647678, guid: 36ff76a9e7929f342915274725573e00,
        type: 3}
      propertyPath: m_IsActive
      value: 0
      objectReference: {fileID: 0}
    - target: {fileID: 5370477392995625864, guid: 36ff76a9e7929f342915274725573e00,
        type: 3}
      propertyPath: m_text
      value: Say "Color"
      objectReference: {fileID: 0}
    - target: {fileID: 5370477392995625864, guid: 36ff76a9e7929f342915274725573e00,
        type: 3}
      propertyPath: m_textInfo.characterCount
      value: 11
      objectReference: {fileID: 0}
    - target: {fileID: 5956172336509982321, guid: 36ff76a9e7929f342915274725573e00,
        type: 3}
      propertyPath: OnClick.m_PersistentCalls.m_Calls.Array.data[0].m_Mode
      value: 2
      objectReference: {fileID: 0}
    - target: {fileID: 5956172336509982321, guid: 36ff76a9e7929f342915274725573e00,
        type: 3}
      propertyPath: OnClick.m_PersistentCalls.m_Calls.Array.data[0].m_Target
      value: 
      objectReference: {fileID: 381596676}
    - target: {fileID: 5956172336509982321, guid: 36ff76a9e7929f342915274725573e00,
        type: 3}
      propertyPath: OnClick.m_PersistentCalls.m_Calls.Array.data[0].m_MethodName
      value: SummonColorPicker
      objectReference: {fileID: 0}
    - target: {fileID: 5956172336509982321, guid: 36ff76a9e7929f342915274725573e00,
        type: 3}
      propertyPath: OnClick.m_PersistentCalls.m_Calls.Array.data[0].m_Arguments.m_ObjectArgument
      value: 
      objectReference: {fileID: 1927950887}
    - target: {fileID: 5956172336509982321, guid: 36ff76a9e7929f342915274725573e00,
        type: 3}
      propertyPath: OnClick.m_PersistentCalls.m_Calls.Array.data[0].m_Arguments.m_ObjectArgumentAssemblyTypeName
      value: UnityEngine.GameObject, UnityEngine
      objectReference: {fileID: 0}
    - target: {fileID: 6906603868331807467, guid: 36ff76a9e7929f342915274725573e00,
        type: 3}
      propertyPath: iconStyle
      value: 3
      objectReference: {fileID: 0}
    m_RemovedComponents: []
  m_SourcePrefab: {fileID: 100100000, guid: 36ff76a9e7929f342915274725573e00, type: 3}
--- !u!4 &1851272784 stripped
Transform:
  m_CorrespondingSourceObject: {fileID: 3885370232023760435, guid: 36ff76a9e7929f342915274725573e00,
    type: 3}
  m_PrefabInstance: {fileID: 1851272783}
  m_PrefabAsset: {fileID: 0}
--- !u!1 &1862346507
GameObject:
  m_ObjectHideFlags: 0
  m_CorrespondingSourceObject: {fileID: 0}
  m_PrefabInstance: {fileID: 0}
  m_PrefabAsset: {fileID: 0}
  serializedVersion: 6
  m_Component:
  - component: {fileID: 1862346508}
  - component: {fileID: 1862346509}
  m_Layer: 0
  m_Name: RainbowButton
  m_TagString: Untagged
  m_Icon: {fileID: 0}
  m_NavMeshLayer: 0
  m_StaticEditorFlags: 0
  m_IsActive: 1
--- !u!4 &1862346508
Transform:
  m_ObjectHideFlags: 0
  m_CorrespondingSourceObject: {fileID: 0}
  m_PrefabInstance: {fileID: 0}
  m_PrefabAsset: {fileID: 0}
  m_GameObject: {fileID: 1862346507}
  m_LocalRotation: {x: -0, y: -0, z: -0, w: 1}
  m_LocalPosition: {x: 0, y: 0.002, z: 0}
  m_LocalScale: {x: 0.02, y: 0.02, z: 0.01}
  m_Children: []
  m_Father: {fileID: 1004607930}
  m_RootOrder: 4
  m_LocalEulerAnglesHint: {x: 0, y: 0, z: 0}
--- !u!212 &1862346509
SpriteRenderer:
  m_ObjectHideFlags: 0
  m_CorrespondingSourceObject: {fileID: 0}
  m_PrefabInstance: {fileID: 0}
  m_PrefabAsset: {fileID: 0}
  m_GameObject: {fileID: 1862346507}
  m_Enabled: 1
  m_CastShadows: 0
  m_ReceiveShadows: 0
  m_DynamicOccludee: 1
  m_MotionVectors: 1
  m_LightProbeUsage: 1
  m_ReflectionProbeUsage: 1
  m_RayTracingMode: 0
  m_RenderingLayerMask: 1
  m_RendererPriority: 0
  m_Materials:
  - {fileID: 10754, guid: 0000000000000000f000000000000000, type: 0}
  m_StaticBatchInfo:
    firstSubMesh: 0
    subMeshCount: 0
  m_StaticBatchRoot: {fileID: 0}
  m_ProbeAnchor: {fileID: 0}
  m_LightProbeVolumeOverride: {fileID: 0}
  m_ScaleInLightmap: 1
  m_ReceiveGI: 1
  m_PreserveUVs: 0
  m_IgnoreNormalsForChartDetection: 0
  m_ImportantGI: 0
  m_StitchLightmapSeams: 1
  m_SelectedEditorRenderState: 0
  m_MinimumChartSize: 4
  m_AutoUVMaxDistance: 0.5
  m_AutoUVMaxAngle: 89
  m_LightmapParameters: {fileID: 0}
  m_SortingLayerID: 0
  m_SortingLayer: 0
  m_SortingOrder: 0
  m_Sprite: {fileID: 21300000, guid: e7e105f170f3abb4982e01be68c40563, type: 3}
  m_Color: {r: 1, g: 1, b: 1, a: 1}
  m_FlipX: 0
  m_FlipY: 0
  m_DrawMode: 0
  m_Size: {x: 0.8, y: 0.8}
  m_AdaptiveModeThreshold: 0.5
  m_SpriteTileMode: 0
  m_WasSpriteAssigned: 1
  m_MaskInteraction: 0
  m_SpriteSortPoint: 0
--- !u!1 &1904373576
GameObject:
  m_ObjectHideFlags: 0
  m_CorrespondingSourceObject: {fileID: 0}
  m_PrefabInstance: {fileID: 0}
  m_PrefabAsset: {fileID: 0}
  serializedVersion: 6
  m_Component:
  - component: {fileID: 1904373577}
  - component: {fileID: 1904373580}
  - component: {fileID: 1904373579}
  - component: {fileID: 1904373578}
  m_Layer: 0
  m_Name: TargetObject (Mesh)
  m_TagString: Untagged
  m_Icon: {fileID: 0}
  m_NavMeshLayer: 0
  m_StaticEditorFlags: 0
  m_IsActive: 1
--- !u!4 &1904373577
Transform:
  m_ObjectHideFlags: 0
  m_CorrespondingSourceObject: {fileID: 0}
  m_PrefabInstance: {fileID: 0}
  m_PrefabAsset: {fileID: 0}
  m_GameObject: {fileID: 1904373576}
  m_LocalRotation: {x: -0.11344119, y: -0.3727586, z: 0.046988882, w: 0.9197686}
  m_LocalPosition: {x: 0.0009769797, y: -0.015908465, z: 0.045769572}
  m_LocalScale: {x: 0.08706921, y: 0.08706916, z: 0.0870692}
  m_Children: []
  m_Father: {fileID: 723593862}
  m_RootOrder: 0
  m_LocalEulerAnglesHint: {x: -10, y: -45, z: 10}
--- !u!65 &1904373578
BoxCollider:
  m_ObjectHideFlags: 0
  m_CorrespondingSourceObject: {fileID: 0}
  m_PrefabInstance: {fileID: 0}
  m_PrefabAsset: {fileID: 0}
  m_GameObject: {fileID: 1904373576}
  m_Material: {fileID: 0}
  m_IsTrigger: 0
  m_Enabled: 0
  serializedVersion: 2
  m_Size: {x: 1, y: 1, z: 1}
  m_Center: {x: 0, y: 0, z: 0}
--- !u!23 &1904373579
MeshRenderer:
  m_ObjectHideFlags: 0
  m_CorrespondingSourceObject: {fileID: 0}
  m_PrefabInstance: {fileID: 0}
  m_PrefabAsset: {fileID: 0}
  m_GameObject: {fileID: 1904373576}
  m_Enabled: 1
  m_CastShadows: 1
  m_ReceiveShadows: 1
  m_DynamicOccludee: 1
  m_MotionVectors: 1
  m_LightProbeUsage: 1
  m_ReflectionProbeUsage: 1
  m_RayTracingMode: 2
  m_RenderingLayerMask: 1
  m_RendererPriority: 0
  m_Materials:
  - {fileID: 2100000, guid: a50237e3265fe9149a16e889fd8d8b4c, type: 2}
  m_StaticBatchInfo:
    firstSubMesh: 0
    subMeshCount: 0
  m_StaticBatchRoot: {fileID: 0}
  m_ProbeAnchor: {fileID: 0}
  m_LightProbeVolumeOverride: {fileID: 0}
  m_ScaleInLightmap: 1
  m_ReceiveGI: 1
  m_PreserveUVs: 0
  m_IgnoreNormalsForChartDetection: 0
  m_ImportantGI: 0
  m_StitchLightmapSeams: 1
  m_SelectedEditorRenderState: 3
  m_MinimumChartSize: 4
  m_AutoUVMaxDistance: 0.5
  m_AutoUVMaxAngle: 89
  m_LightmapParameters: {fileID: 0}
  m_SortingLayerID: 0
  m_SortingLayer: 0
  m_SortingOrder: 0
--- !u!33 &1904373580
MeshFilter:
  m_ObjectHideFlags: 0
  m_CorrespondingSourceObject: {fileID: 0}
  m_PrefabInstance: {fileID: 0}
  m_PrefabAsset: {fileID: 0}
  m_GameObject: {fileID: 1904373576}
  m_Mesh: {fileID: 4300000, guid: bb88669a3463b36438d9225a3ecd3a35, type: 3}
--- !u!1 &1927950887
GameObject:
  m_ObjectHideFlags: 0
  m_CorrespondingSourceObject: {fileID: 0}
  m_PrefabInstance: {fileID: 0}
  m_PrefabAsset: {fileID: 0}
  serializedVersion: 6
  m_Component:
  - component: {fileID: 1927950888}
  m_Layer: 0
  m_Name: ItemContainer (3)
  m_TagString: Untagged
  m_Icon: {fileID: 0}
  m_NavMeshLayer: 0
  m_StaticEditorFlags: 0
  m_IsActive: 1
--- !u!4 &1927950888
Transform:
  m_ObjectHideFlags: 0
  m_CorrespondingSourceObject: {fileID: 0}
  m_PrefabInstance: {fileID: 0}
  m_PrefabAsset: {fileID: 0}
  m_GameObject: {fileID: 1927950887}
  m_LocalRotation: {x: 0, y: 0, z: 0, w: 1}
  m_LocalPosition: {x: 0.3, y: 0, z: 0}
  m_LocalScale: {x: 1, y: 1, z: 1}
  m_Children:
  - {fileID: 1322948237}
  - {fileID: 1457291351}
  - {fileID: 899000159}
  - {fileID: 1851272784}
  m_Father: {fileID: 1382463660}
  m_RootOrder: 4
  m_LocalEulerAnglesHint: {x: 0, y: 0, z: 0}
--- !u!1001 &4684963342117267430
PrefabInstance:
  m_ObjectHideFlags: 0
  serializedVersion: 2
  m_Modification:
    m_TransformParent: {fileID: 1382463660}
    m_Modifications:
    - target: {fileID: 4094106862538102290, guid: e96124284fc8b4c478ce38f89e1e0ef3,
        type: 3}
      propertyPath: OnClick.m_PersistentCalls.m_Calls.Array.data[1].m_Target
      value: 
      objectReference: {fileID: 1734862429}
    - target: {fileID: 4094106862538102290, guid: e96124284fc8b4c478ce38f89e1e0ef3,
        type: 3}
      propertyPath: OnClick.m_PersistentCalls.m_Calls.Array.data[2].m_Target
      value: 
      objectReference: {fileID: 1102851793}
    - target: {fileID: 4094106862538102290, guid: e96124284fc8b4c478ce38f89e1e0ef3,
        type: 3}
      propertyPath: OnClick.m_PersistentCalls.m_Calls.Array.data[3].m_Target
      value: 
      objectReference: {fileID: 159991640}
    - target: {fileID: 4684963340420568997, guid: e96124284fc8b4c478ce38f89e1e0ef3,
        type: 3}
      propertyPath: onManipulationEnded.m_PersistentCalls.m_Calls.Array.data[1].m_Target
      value: 
      objectReference: {fileID: 914966060}
    - target: {fileID: 4684963340420568997, guid: e96124284fc8b4c478ce38f89e1e0ef3,
        type: 3}
      propertyPath: onManipulationStarted.m_PersistentCalls.m_Calls.Array.data[1].m_Target
      value: 
      objectReference: {fileID: 914966061}
    - target: {fileID: 4684963340420568997, guid: e96124284fc8b4c478ce38f89e1e0ef3,
        type: 3}
      propertyPath: onManipulationStarted.m_PersistentCalls.m_Calls.Array.data[2].m_Target
      value: 
      objectReference: {fileID: 914966063}
    - target: {fileID: 4684963340420568997, guid: e96124284fc8b4c478ce38f89e1e0ef3,
        type: 3}
      propertyPath: onManipulationStarted.m_PersistentCalls.m_Calls.Array.data[3].m_Target
      value: 
      objectReference: {fileID: 914966060}
    - target: {fileID: 4684963340801468572, guid: e96124284fc8b4c478ce38f89e1e0ef3,
        type: 3}
      propertyPath: onManipulationEnded.m_PersistentCalls.m_Calls.Array.data[1].m_Target
      value: 
      objectReference: {fileID: 914966060}
    - target: {fileID: 4684963340801468572, guid: e96124284fc8b4c478ce38f89e1e0ef3,
        type: 3}
      propertyPath: onManipulationStarted.m_PersistentCalls.m_Calls.Array.data[1].m_Target
      value: 
      objectReference: {fileID: 914966061}
    - target: {fileID: 4684963340801468572, guid: e96124284fc8b4c478ce38f89e1e0ef3,
        type: 3}
      propertyPath: onManipulationStarted.m_PersistentCalls.m_Calls.Array.data[2].m_Target
      value: 
      objectReference: {fileID: 914966063}
    - target: {fileID: 4684963340801468572, guid: e96124284fc8b4c478ce38f89e1e0ef3,
        type: 3}
      propertyPath: onManipulationStarted.m_PersistentCalls.m_Calls.Array.data[3].m_Target
      value: 
      objectReference: {fileID: 914966060}
    - target: {fileID: 4684963340808701986, guid: e96124284fc8b4c478ce38f89e1e0ef3,
        type: 3}
      propertyPath: onManipulationEnded.m_PersistentCalls.m_Calls.Array.data[1].m_Target
      value: 
      objectReference: {fileID: 914966060}
    - target: {fileID: 4684963340808701986, guid: e96124284fc8b4c478ce38f89e1e0ef3,
        type: 3}
      propertyPath: onManipulationStarted.m_PersistentCalls.m_Calls.Array.data[1].m_Target
      value: 
      objectReference: {fileID: 914966061}
    - target: {fileID: 4684963340808701986, guid: e96124284fc8b4c478ce38f89e1e0ef3,
        type: 3}
      propertyPath: onManipulationStarted.m_PersistentCalls.m_Calls.Array.data[2].m_Target
      value: 
      objectReference: {fileID: 914966063}
    - target: {fileID: 4684963340808701986, guid: e96124284fc8b4c478ce38f89e1e0ef3,
        type: 3}
      propertyPath: onManipulationStarted.m_PersistentCalls.m_Calls.Array.data[3].m_Target
      value: 
      objectReference: {fileID: 914966060}
    - target: {fileID: 4684963341625731773, guid: e96124284fc8b4c478ce38f89e1e0ef3,
        type: 3}
      propertyPath: onManipulationEnded.m_PersistentCalls.m_Calls.Array.data[1].m_Target
      value: 
      objectReference: {fileID: 914966060}
    - target: {fileID: 4684963341625731773, guid: e96124284fc8b4c478ce38f89e1e0ef3,
        type: 3}
      propertyPath: onManipulationStarted.m_PersistentCalls.m_Calls.Array.data[1].m_Target
      value: 
      objectReference: {fileID: 914966061}
    - target: {fileID: 4684963341625731773, guid: e96124284fc8b4c478ce38f89e1e0ef3,
        type: 3}
      propertyPath: onManipulationStarted.m_PersistentCalls.m_Calls.Array.data[2].m_Target
      value: 
      objectReference: {fileID: 914966063}
    - target: {fileID: 4684963341625731773, guid: e96124284fc8b4c478ce38f89e1e0ef3,
        type: 3}
      propertyPath: onManipulationStarted.m_PersistentCalls.m_Calls.Array.data[3].m_Target
      value: 
      objectReference: {fileID: 914966060}
    - target: {fileID: 4684963341652805704, guid: e96124284fc8b4c478ce38f89e1e0ef3,
        type: 3}
      propertyPath: onManipulationEnded.m_PersistentCalls.m_Calls.Array.data[1].m_Target
      value: 
      objectReference: {fileID: 914966060}
    - target: {fileID: 4684963341652805704, guid: e96124284fc8b4c478ce38f89e1e0ef3,
        type: 3}
      propertyPath: onManipulationStarted.m_PersistentCalls.m_Calls.Array.data[1].m_Target
      value: 
      objectReference: {fileID: 914966061}
    - target: {fileID: 4684963341652805704, guid: e96124284fc8b4c478ce38f89e1e0ef3,
        type: 3}
      propertyPath: onManipulationStarted.m_PersistentCalls.m_Calls.Array.data[2].m_Target
      value: 
      objectReference: {fileID: 914966063}
    - target: {fileID: 4684963341652805704, guid: e96124284fc8b4c478ce38f89e1e0ef3,
        type: 3}
      propertyPath: onManipulationStarted.m_PersistentCalls.m_Calls.Array.data[3].m_Target
      value: 
      objectReference: {fileID: 914966060}
    - target: {fileID: 4684963341941003236, guid: e96124284fc8b4c478ce38f89e1e0ef3,
        type: 3}
      propertyPath: m_Name
      value: ColorPickerPrefab
      objectReference: {fileID: 0}
    - target: {fileID: 4684963341941003237, guid: e96124284fc8b4c478ce38f89e1e0ef3,
        type: 3}
      propertyPath: m_RootOrder
      value: 1
      objectReference: {fileID: 0}
    - target: {fileID: 4684963341941003237, guid: e96124284fc8b4c478ce38f89e1e0ef3,
        type: 3}
      propertyPath: m_LocalPosition.x
      value: 0.023521397
      objectReference: {fileID: 0}
    - target: {fileID: 4684963341941003237, guid: e96124284fc8b4c478ce38f89e1e0ef3,
        type: 3}
      propertyPath: m_LocalPosition.y
      value: -0.17090848
      objectReference: {fileID: 0}
    - target: {fileID: 4684963341941003237, guid: e96124284fc8b4c478ce38f89e1e0ef3,
        type: 3}
      propertyPath: m_LocalPosition.z
      value: -0.22223032
      objectReference: {fileID: 0}
    - target: {fileID: 4684963341941003237, guid: e96124284fc8b4c478ce38f89e1e0ef3,
        type: 3}
      propertyPath: m_LocalRotation.w
      value: 1
      objectReference: {fileID: 0}
    - target: {fileID: 4684963341941003237, guid: e96124284fc8b4c478ce38f89e1e0ef3,
        type: 3}
      propertyPath: m_LocalRotation.x
      value: -0
      objectReference: {fileID: 0}
    - target: {fileID: 4684963341941003237, guid: e96124284fc8b4c478ce38f89e1e0ef3,
        type: 3}
      propertyPath: m_LocalRotation.y
      value: -0
      objectReference: {fileID: 0}
    - target: {fileID: 4684963341941003237, guid: e96124284fc8b4c478ce38f89e1e0ef3,
        type: 3}
      propertyPath: m_LocalRotation.z
      value: -0
      objectReference: {fileID: 0}
    - target: {fileID: 4684963341941003237, guid: e96124284fc8b4c478ce38f89e1e0ef3,
        type: 3}
      propertyPath: m_LocalEulerAnglesHint.x
      value: 0
      objectReference: {fileID: 0}
    - target: {fileID: 4684963341941003237, guid: e96124284fc8b4c478ce38f89e1e0ef3,
        type: 3}
      propertyPath: m_LocalEulerAnglesHint.y
      value: 0
      objectReference: {fileID: 0}
    - target: {fileID: 4684963341941003237, guid: e96124284fc8b4c478ce38f89e1e0ef3,
        type: 3}
      propertyPath: m_LocalEulerAnglesHint.z
      value: 0
      objectReference: {fileID: 0}
    - target: {fileID: 6683939214961445427, guid: e96124284fc8b4c478ce38f89e1e0ef3,
        type: 3}
      propertyPath: m_Mesh
      value: 
      objectReference: {fileID: 0}
    - target: {fileID: 6683939216402692254, guid: e96124284fc8b4c478ce38f89e1e0ef3,
        type: 3}
      propertyPath: m_Mesh
      value: 
      objectReference: {fileID: 0}
    - target: {fileID: 9148343224388316936, guid: e96124284fc8b4c478ce38f89e1e0ef3,
        type: 3}
      propertyPath: m_Mesh
      value: 
      objectReference: {fileID: 0}
    m_RemovedComponents: []
  m_SourcePrefab: {fileID: 100100000, guid: e96124284fc8b4c478ce38f89e1e0ef3, type: 3}
