%YAML 1.1
%TAG !u! tag:unity3d.com,2011:
--- !u!21 &2100000
Material:
  serializedVersion: 6
  m_ObjectHideFlags: 0
  m_CorrespondingSourceObject: {fileID: 0}
  m_PrefabInstance: {fileID: 0}
  m_PrefabAsset: {fileID: 0}
  m_Name: BrianPart_Mat
  m_Shader: {fileID: 4800000, guid: 51ed5d55351ee444da1aa0efe2091061, type: 3}
  m_ShaderKeywords: 
  m_LightmapFlags: 4
  m_EnableInstancingVariants: 0
  m_DoubleSidedGI: 0
  m_CustomRenderQueue: -1
  stringTagMap: {}
  disabledShaderPasses: []
  m_SavedProperties:
    serializedVersion: 3
    m_TexEnvs:
    - _MainTex:
        m_Texture: {fileID: 0}
        m_Scale: {x: 1, y: 1}
        m_Offset: {x: 0, y: 0}
    m_Floats:
    - _ClippingEnable: 1
    - _Metallic: 0
    - _RimEnable: 0
    - _RimPower: 7
    - _Smoothness: 0
    m_Colors:
    - _Color: {r: 0.6792453, g: 0.6792453, b: 0.6792453, a: 0}
    - _CutoffColor: {r: 0.6792453, g: 0.6792453, b: 0.6792453, a: 0}
    - _Emission: {r: 0, g: 0, b: 0, a: 0}
    - _RimColor: {r: 0.5801887, g: 1, b: 0.91586083, a: 0}
