%YAML 1.1
%TAG !u! tag:unity3d.com,2011:
--- !u!21 &2100000
Material:
  serializedVersion: 6
  m_ObjectHideFlags: 0
  m_CorrespondingSourceObject: {fileID: 0}
  m_PrefabInstance: {fileID: 0}
  m_PrefabAsset: {fileID: 0}
  m_Name: OutlineOrange 1
  m_Shader: {fileID: 4800000, guid: 5bdea20278144b11916d77503ba1467a, type: 3}
  m_ShaderKeywords: _DISABLE_ALBEDO_MAP _SMOOTH_NORMALS _VERTEX_EXTRUSION _VERTEX_EXTRUSION_SMOOTH_NORMAL
    _VERTEX_EXTRUSION_SMOOTH_NORMALS
  m_LightmapFlags: 4
  m_EnableInstancingVariants: 1
  m_DoubleSidedGI: 0
  m_CustomRenderQueue: 1999
  stringTagMap:
    RenderType: Opaque
  disabledShaderPasses: []
  m_SavedProperties:
    serializedVersion: 3
    m_TexEnvs:
    - _ChannelMap:
        m_Texture: {fileID: 0}
        m_Scale: {x: 1, y: 1}
        m_Offset: {x: 0, y: 0}
    - _IridescentSpectrumMap:
        m_Texture: {fileID: 0}
        m_Scale: {x: 1, y: 1}
        m_Offset: {x: 0, y: 0}
    - _MainTex:
        m_Texture: {fileID: 0}
        m_Scale: {x: 1, y: 1}
        m_Offset: {x: 0, y: 0}
    - _NormalMap:
        m_Texture: {fileID: 0}
        m_Scale: {x: 1, y: 1}
        m_Offset: {x: 0, y: 0}
    m_Floats:
    - _AlbedoAlphaMode: 0
    - _AlbedoAssignedAtRuntime: 0
    - _BlendOp: 0
    - _BlendedClippingWidth: 1
    - _BorderLight: 0
    - _BorderLightOpaque: 0
    - _BorderLightOpaqueAlpha: 1
    - _BorderLightReplacesAlbedo: 0
    - _BorderLightUsesHoverColor: 0
    - _BorderMinValue: 0.1
    - _BorderWidth: 0.1
    - _ClippingBorder: 0
    - _ClippingBorderWidth: 0.025
    - _ColorWriteMask: 15
    - _CullMode: 0
    - _CustomMode: 0
    - _Cutoff: 0.5
    - _DirectionalLight: 0
    - _DstBlend: 0
    - _EdgeSmoothingValue: 0.002
    - _EnableChannelMap: 0
    - _EnableEmission: 0
    - _EnableHoverColorOverride: 0
    - _EnableLocalSpaceTriplanarMapping: 0
    - _EnableNormalMap: 0
    - _EnableProximityLightColorOverride: 0
    - _EnableTriplanarMapping: 0
    - _EnvironmentColorIntensity: 0.5
    - _EnvironmentColorThreshold: 1.5
    - _EnvironmentColoring: 0
    - _FadeBeginDistance: 0.85
    - _FadeCompleteDistance: 0.5
    - _FadeMinValue: 0
    - _FluentLightIntensity: 1
    - _HoverLight: 0
    - _IgnoreZScale: 0
    - _IndependentCorners: 0
    - _InnerGlow: 0
    - _InnerGlowPower: 4
    - _InstancedColor: 0
    - _Iridescence: 0
    - _IridescenceAngle: -0.78
    - _IridescenceIntensity: 0.5
    - _IridescenceThreshold: 0.05
    - _Metallic: 0
    - _Mode: 5
    - _NearLightFade: 0
    - _NearPlaneFade: 0
    - _NormalMapScale: 1
    - _ProximityLight: 0
    - _ProximityLightSubtractive: 0
    - _ProximityLightTwoSided: 0
    - _Reflections: 0
    - _Refraction: 0
    - _RefractiveIndex: 0
    - _RenderQueueOverride: -1
    - _RimLight: 0
    - _RimPower: 0.25
    - _RoundCornerMargin: 0.01
    - _RoundCornerRadius: 0.25
    - _RoundCorners: 0
    - _SmoothNormals: 1
    - _Smoothness: 0.5
    - _SpecularHighlights: 0
    - _SphericalHarmonics: 0
    - _SrcBlend: 1
    - _Stencil: 0
    - _StencilComparison: 0
    - _StencilOperation: 0
    - _StencilReference: 0
    - _TriplanarMappingBlendSharpness: 4
    - _VertexColors: 0
    - _VertexExtrusion: 1
    - _VertexExtrusionSmoothNormal: 1
    - _VertexExtrusionSmoothNormals: 1
    - _VertexExtrusionValue: 0.01
    - _ZOffsetFactor: 0
    - _ZOffsetUnits: 0
    - _ZTest: 0
    - _ZWrite: 0
    m_Colors:
    - _ClippingBorderColor: {r: 1, g: 0.2, b: 0, a: 1}
    - _Color: {r: 0.9607844, g: 0.40784317, b: 0.039215688, a: 1}
    - _EmissiveColor: {r: 0, g: 0, b: 0, a: 1}
    - _EnvironmentColorX: {r: 1, g: 0, b: 0, a: 1}
    - _EnvironmentColorY: {r: 0, g: 1, b: 0, a: 1}
    - _EnvironmentColorZ: {r: 0, g: 0, b: 1, a: 1}
    - _HoverColorOverride: {r: 1, g: 1, b: 1, a: 1}
    - _InnerGlowColor: {r: 1, g: 1, b: 1, a: 0.75}
    - _ProximityLightCenterColorOverride: {r: 1, g: 0, b: 0, a: 0}
    - _ProximityLightMiddleColorOverride: {r: 0, g: 1, b: 0, a: 0.5}
    - _ProximityLightOuterColorOverride: {r: 0, g: 0, b: 1, a: 1}
    - _RimColor: {r: 0.5, g: 0.5, b: 0.5, a: 1}
    - _RoundCornersRadius: {r: 0.5, g: 0.5, b: 0.5, a: 0.5}
